firmware/testbench/coredump.vcd
$date
	Tue Mar 14 11:38:31 2017
$end
$version
	Icarus Verilog
$end
$timescale
	1s
$end
$scope module epRISC_coreTB $end
$var wire 1 ! bBoardDebug0 $end
$var wire 1 " bBoardDebug1 $end
$var wire 1 # bBoardDebug2 $end
$var wire 1 $ bBoardDebug3 $end
$var wire 1 % bBoardDebug4 $end
$var wire 1 & bBoardDebug5 $end
$var wire 33 ' bMemoryData [0:32] $end
$var wire 1 ( bPS2Clock $end
$var wire 1 ) bPS2Data $end
$var wire 1 * iBoardReceive $end
$var wire 1 + iBoardSense $end
$var wire 1 , iExtBusInterrupt $end
$var wire 4 - iExtBusMISO [3:0] $end
$var wire 1 . iSPIDetect0 $end
$var wire 1 / iSPIDetect1 $end
$var wire 1 0 iSPIMISO $end
$var wire 1 1 iSPIWrite0 $end
$var wire 1 2 iSPIWrite1 $end
$var wire 1 3 iSerialCTS $end
$var wire 1 4 iSerialDCD $end
$var wire 1 5 iSerialDSR $end
$var wire 1 6 iSerialRX $end
$var wire 1 7 iTTLSerialRST $end
$var wire 1 8 iTTLSerialRX $end
$var wire 1 9 oBoardAcknowledge $end
$var wire 1 : oBoardTransmit $end
$var wire 1 ; oExtBusClock $end
$var wire 4 < oExtBusMOSI [3:0] $end
$var wire 2 = oExtBusSS [1:0] $end
$var wire 12 > oMemoryAddress [0:11] $end
$var wire 2 ? oMemoryBank [0:1] $end
$var wire 1 @ oMemoryCAS $end
$var wire 1 A oMemoryCKE $end
$var wire 1 B oMemoryCLK $end
$var wire 1 C oMemoryCS $end
$var wire 4 D oMemoryDQM [0:3] $end
$var wire 1 E oMemoryRAS $end
$var wire 1 F oMemoryWE $end
$var wire 1 G oSPIClock $end
$var wire 1 H oSPIMOSI $end
$var wire 1 I oSerialDTR $end
$var wire 1 J oSerialRTS $end
$var wire 1 K oSerialTX $end
$var wire 1 L oTTLSerialTX $end
$var wire 8 M oVGAColor [7:0] $end
$var wire 1 N oVGAHorizontal $end
$var wire 1 O oVGAVertical $end
$var wire 1 P oSPISelect $end
$var wire 2 Q oBusSelect [0:1] $end
$var wire 8 R oBusMOSI [0:7] $end
$var wire 1 S oBusClock $end
$var wire 8 T iBusMISO [0:7] $end
$var wire 1 U iBusInterrupt $end
$var wire 1 V bGPIO9 $end
$var wire 1 W bGPIO8 $end
$var wire 1 X bGPIO7 $end
$var wire 1 Y bGPIO6 $end
$var wire 1 Z bGPIO5 $end
$var wire 1 [ bGPIO4 $end
$var wire 1 \ bGPIO3 $end
$var wire 1 ] bGPIO2 $end
$var wire 1 ^ bGPIO15 $end
$var wire 1 _ bGPIO14 $end
$var wire 1 ` bGPIO13 $end
$var wire 1 a bGPIO12 $end
$var wire 1 b bGPIO11 $end
$var wire 1 c bGPIO10 $end
$var wire 1 d bGPIO1 $end
$var wire 1 e bGPIO0 $end
$var reg 1 f iBoardClock $end
$var reg 1 g iBoardReset $end
$scope module controller $end
$var wire 1 ! bBoardDebug0 $end
$var wire 1 " bBoardDebug1 $end
$var wire 1 # bBoardDebug2 $end
$var wire 1 $ bBoardDebug3 $end
$var wire 1 % bBoardDebug4 $end
$var wire 1 & bBoardDebug5 $end
$var wire 1 ( bPS2Clock $end
$var wire 1 ) bPS2Data $end
$var wire 1 f iBoardClock $end
$var wire 1 g iBoardReset $end
$var wire 1 , iExtBusInterrupt $end
$var wire 4 h iExtBusMISO [3:0] $end
$var wire 1 . iSPIDetect0 $end
$var wire 1 / iSPIDetect1 $end
$var wire 1 0 iSPIMISO $end
$var wire 1 1 iSPIWrite0 $end
$var wire 1 2 iSPIWrite1 $end
$var wire 1 3 iSerialCTS $end
$var wire 1 4 iSerialDCD $end
$var wire 1 5 iSerialDSR $end
$var wire 1 6 iSerialRX $end
$var wire 1 7 iTTLSerialRST $end
$var wire 1 8 iTTLSerialRX $end
$var wire 1 ; oExtBusClock $end
$var wire 4 i oExtBusMOSI [3:0] $end
$var wire 2 j oExtBusSS [1:0] $end
$var wire 1 G oSPIClock $end
$var wire 1 H oSPIMOSI $end
$var wire 4 k oSPISelect [3:0] $end
$var wire 1 I oSerialDTR $end
$var wire 1 J oSerialRTS $end
$var wire 1 K oSerialTX $end
$var wire 1 L oTTLSerialTX $end
$var wire 8 l oVGAColor [7:0] $end
$var wire 1 N oVGAHorizontal $end
$var wire 1 O oVGAVertical $end
$var wire 32 m wInternalMISO [31:0] $end
$var wire 1 n wEnableRAM $end
$var wire 1 o wEnableGPIO $end
$var wire 8 p oBusMISO [7:0] $end
$var wire 1 U oBusInterrupt $end
$var wire 1 q mBusWrite $end
$var wire 16 r mBusData [15:0] $end
$var wire 15 s mBusAddress [14:0] $end
$var wire 2 t iBusSelect [1:0] $end
$var wire 8 u iBusMOSI [7:0] $end
$var wire 1 S iBusClock $end
$var wire 1 V bGPIO9 $end
$var wire 1 W bGPIO8 $end
$var wire 1 X bGPIO7 $end
$var wire 1 Y bGPIO6 $end
$var wire 1 Z bGPIO5 $end
$var wire 1 [ bGPIO4 $end
$var wire 1 \ bGPIO3 $end
$var wire 1 ] bGPIO2 $end
$var wire 1 ^ bGPIO15 $end
$var wire 1 _ bGPIO14 $end
$var wire 1 ` bGPIO13 $end
$var wire 1 a bGPIO12 $end
$var wire 1 b bGPIO11 $end
$var wire 1 c bGPIO10 $end
$var wire 1 d bGPIO1 $end
$var wire 1 e bGPIO0 $end
$var reg 32 v rInternalMOSI [31:0] $end
$var reg 4 w rPipeNextState [3:0] $end
$var reg 4 x rPipePrevState [3:0] $end
$var reg 4 y rPipeState [3:0] $end
$scope module gpio $end
$var wire 2 z iAddress [1:0] $end
$var wire 16 { iData [15:0] $end
$var wire 1 o iEnable $end
$var wire 1 | iReset $end
$var wire 1 q iWrite $end
$var wire 16 } oData [15:0] $end
$var wire 1 S iClock $end
$var wire 1 V bPort9 $end
$var wire 1 W bPort8 $end
$var wire 1 X bPort7 $end
$var wire 1 Y bPort6 $end
$var wire 1 Z bPort5 $end
$var wire 1 [ bPort4 $end
$var wire 1 \ bPort3 $end
$var wire 1 ] bPort2 $end
$var wire 1 ^ bPort15 $end
$var wire 1 _ bPort14 $end
$var wire 1 ` bPort13 $end
$var wire 1 a bPort12 $end
$var wire 1 b bPort11 $end
$var wire 1 c bPort10 $end
$var wire 1 d bPort1 $end
$var wire 1 e bPort0 $end
$var reg 1 U oInterrupt $end
$var reg 16 ~ rDirection [15:0] $end
$var reg 16 !" rInterrupt [15:0] $end
$var reg 16 "" rValue [15:0] $end
$upscope $end
$scope module mem $end
$var wire 8 #" iAddr [7:0] $end
$var wire 32 $" iData [31:0] $end
$var wire 1 n iEnable $end
$var wire 1 %" iRst $end
$var wire 1 q iWrite $end
$var wire 32 &" oData [31:0] $end
$var wire 1 S iClk $end
$upscope $end
$upscope $end
$scope module machine $end
$var wire 1 ! bBoardDebug0 $end
$var wire 1 # bBoardDebug2 $end
$var wire 1 $ bBoardDebug3 $end
$var wire 1 % bBoardDebug4 $end
$var wire 1 & bBoardDebug5 $end
$var wire 32 '" bMemoryData [31:0] $end
$var wire 1 f iBoardClock $end
$var wire 1 * iBoardReceive $end
$var wire 1 g iBoardReset $end
$var wire 1 + iBoardSense $end
$var wire 1 U iBusInterrupt $end
$var wire 8 (" iBusMISO [7:0] $end
$var wire 1 )" iWrite $end
$var wire 1 9 oBoardAcknowledge $end
$var wire 1 : oBoardTransmit $end
$var wire 12 *" oMemoryAddress [11:0] $end
$var wire 2 +" oMemoryBank [1:0] $end
$var wire 1 @ oMemoryCAS $end
$var wire 1 A oMemoryCKE $end
$var wire 1 B oMemoryCLK $end
$var wire 1 C oMemoryCS $end
$var wire 4 ," oMemoryDQM [3:0] $end
$var wire 1 E oMemoryRAS $end
$var wire 1 F oMemoryWE $end
$var wire 32 -" wCoreBusData [0:31] $end
$var wire 1 ." wCoreBusNMInterrupt $end
$var wire 1 /" wCoreFlag $end
$var wire 32 0" wRAMData [0:31] $end
$var wire 1 1" wEnableROM $end
$var wire 1 2" wEnableRAM $end
$var wire 1 3" wEnableBusControl $end
$var wire 1 4" wCoreHalt $end
$var wire 1 5" wCoreBusWrite $end
$var wire 1 6" wCoreBusReset $end
$var wire 1 7" wCoreBusMemClock $end
$var wire 1 8" wCoreBusInterrupt $end
$var wire 1 9" wCoreBusClock $end
$var wire 32 :" wCoreBusAddress [0:31] $end
$var wire 2 ;" oBusSelect [1:0] $end
$var wire 8 <" oBusMOSI [7:0] $end
$var wire 1 S oBusClock $end
$scope module bcram $end
$var wire 32 =" bData [31:0] $end
$var wire 1 >" iEnable $end
$var wire 32 ?" iData [31:0] $end
$upscope $end
$scope module bus $end
$var wire 32 @" bData [31:0] $end
$var wire 4 A" iAddress [3:0] $end
$var wire 1 U iBusInterrupt $end
$var wire 8 B" iBusMISO [7:0] $end
$var wire 1 3" iEnable $end
$var wire 1 6" iReset $end
$var wire 1 8" oInterrupt $end
$var wire 32 C" wTrashMISO [31:0] $end
$var wire 1 D" wInternalWriteMISO $end
$var wire 32 E" wInternalDataMOSI [31:0] $end
$var wire 32 F" wDistributionMOSI [31:0] $end
$var wire 32 G" wDataOutMOSI [31:0] $end
$var wire 32 H" wDataOutMISO [31:0] $end
$var wire 32 I" wDataMOSI [31:0] $end
$var wire 32 J" wDataMISO [31:0] $end
$var wire 2 K" oBusSelect [1:0] $end
$var wire 8 L" oBusMOSI [7:0] $end
$var wire 1 S oBusClock $end
$var wire 1 5" iWrite $end
$var wire 1 7" iMasterClock $end
$var wire 1 7" iClock $end
$var wire 8 M" fTransferCount [7:0] $end
$var wire 1 N" fReceive $end
$var wire 12 O" fClockStep [11:0] $end
$var wire 2 P" fChipSelect [1:0] $end
$var wire 1 Q" fBeginSingle $end
$var wire 1 R" fBeginBlock $end
$var reg 32 S" rConfig [31:0] $end
$var reg 8 T" rCounterMISO [7:0] $end
$var reg 8 U" rCounterMOSI [7:0] $end
$var reg 1 V" rDerivedClock $end
$var reg 32 W" rDirectMISO [31:0] $end
$var reg 32 X" rDirectMOSI [31:0] $end
$var reg 8 Y" rInternalCounterMISO [7:0] $end
$var reg 8 Z" rInternalCounterMOSI [7:0] $end
$var reg 32 [" rInternalDataMISO [31:0] $end
$var reg 12 \" rMasterClockCount [11:0] $end
$var reg 4 ]" rPipeNextState [3:0] $end
$var reg 4 ^" rPipePrevState [3:0] $end
$var reg 4 _" rPipeState [3:0] $end
$var reg 8 `" rTransferCount [7:0] $end
$scope module bufferMISO $end
$var wire 8 a" iAddrA [7:0] $end
$var wire 8 b" iAddrB [7:0] $end
$var wire 1 V" iClkB $end
$var wire 32 c" iDInA [31:0] $end
$var wire 32 d" iDInB [31:0] $end
$var wire 1 e" iWriteA $end
$var wire 1 D" iWriteB $end
$var wire 1 7" iClkA $end
$var reg 32 f" oDOutA [31:0] $end
$var reg 32 g" oDOutB [31:0] $end
$upscope $end
$scope module bufferMOSI $end
$var wire 8 h" iAddrA [7:0] $end
$var wire 8 i" iAddrB [7:0] $end
$var wire 1 V" iClkB $end
$var wire 32 j" iDInA [31:0] $end
$var wire 32 k" iDInB [31:0] $end
$var wire 1 l" iWriteA $end
$var wire 1 m" iWriteB $end
$var wire 1 7" iClkA $end
$var reg 32 n" oDOutA [31:0] $end
$var reg 32 o" oDOutB [31:0] $end
$upscope $end
$upscope $end
$scope module clock $end
$var wire 1 f iIn $end
$var reg 1 9" oOut $end
$var reg 1 7" oOutNinety $end
$var reg 2 p" rClockSplit [1:0] $end
$upscope $end
$scope module core $end
$var wire 32 q" bData [31:0] $end
$var wire 1 9" iClk $end
$var wire 1 8" iMaskInt $end
$var wire 1 ." iNonMaskInt $end
$var wire 1 6" iRst $end
$var wire 1 /" oFlg $end
$var wire 1 r" wClkInt $end
$var wire 32 s" wBusRegB [31:0] $end
$var wire 32 t" wBusRegA [31:0] $end
$var wire 1 u" wBusOutWriteB $end
$var wire 1 v" wBusOutWriteA $end
$var wire 32 w" wBusOutB [31:0] $end
$var wire 8 x" wBusOutAddrB [7:0] $end
$var wire 8 y" wBusOutAddrA [7:0] $end
$var wire 32 z" wBusOutA [31:0] $end
$var wire 32 {" wBusInB [31:0] $end
$var wire 8 |" wBusInAddrB [7:0] $end
$var wire 8 }" wBusInAddrA [7:0] $end
$var wire 32 ~" wBusInA [31:0] $end
$var wire 5 !# wALUOperation [4:0] $end
$var wire 1 5" oWrite $end
$var wire 32 "# oAddr [31:0] $end
$var wire 1 ## mRegisterSwap $end
$var wire 1 $# mRegisterStandard $end
$var wire 1 %# mRegister $end
$var wire 1 &# mLoadStore $end
$var wire 1 '# mLoadLoad $end
$var wire 1 (# mLoad $end
$var wire 1 )# mDirectOR $end
$var wire 1 *# mDirect $end
$var wire 1 +# mCore $end
$var wire 1 ,# mBranchStandard $end
$var wire 1 -# mBranchSaveStack $end
$var wire 1 .# mBranchSaveLink $end
$var wire 1 /# mBranchLoadStack $end
$var wire 1 0# mBranchLoadLink $end
$var wire 1 1# mBranchInterrupt $end
$var wire 1 2# mBranch $end
$var wire 1 3# mALURegisters $end
$var wire 1 4# mALUDirect $end
$var wire 1 5# mALU $end
$var wire 4 6# fRegisterSource [3:0] $end
$var wire 4 7# fRegisterDestination [3:0] $end
$var wire 4 8# fLoadTarget [3:0] $end
$var wire 20 9# fLoadOffset [19:0] $end
$var wire 4 :# fLoadBase [3:0] $end
$var wire 20 ;# fDirectValue [19:0] $end
$var wire 4 <# fDirectShift [3:0] $end
$var wire 4 =# fDirectDestination [3:0] $end
$var wire 6 ># fCoreOperation [5:0] $end
$var wire 20 ?# fCoreData [19:0] $end
$var wire 1 @# fCSZero $end
$var wire 1 A# fCSSignExtend $end
$var wire 4 B# fCSRegisterPage [3:0] $end
$var wire 1 C# fCSOver $end
$var wire 1 D# fCSNeg $end
$var wire 4 E# fCSLinkRegister [3:0] $end
$var wire 1 F# fCSInterruptEn $end
$var wire 1 G# fCSHideRegs $end
$var wire 1 H# fCSFlagSet $end
$var wire 1 I# fCSCarry $end
$var wire 20 J# fBranchOffset [19:0] $end
$var wire 4 K# fBranchCondition [3:0] $end
$var wire 4 L# fBranchBase [3:0] $end
$var wire 8 M# fALUValue [7:0] $end
$var wire 4 N# fALUTermB [3:0] $end
$var wire 4 O# fALUTermA [3:0] $end
$var wire 4 P# fALUShift [3:0] $end
$var wire 5 Q# fALUOperation [4:0] $end
$var wire 4 R# fALUDestination [3:0] $end
$var reg 1 4" oHalt $end
$var reg 33 S# rALUOut [32:0] $end
$var reg 1 T# rExec $end
$var reg 32 U# rInst [31:0] $end
$var reg 4 V# rPipeNextState [3:0] $end
$var reg 4 W# rPipePrevState [3:0] $end
$var reg 4 X# rPipeState [3:0] $end
$var reg 32 Y# rRegA [31:0] $end
$var reg 32 Z# rRegB [31:0] $end
$var reg 32 [# rRegCS [31:0] $end
$var reg 32 \# rRegGL [31:0] $end
$var reg 32 ]# rRegIP [31:0] $end
$var reg 32 ^# rRegInterruptBase [31:0] $end
$var reg 96 _# rRegInterruptStack [95:0] $end
$var reg 32 `# rRegM [31:0] $end
$var reg 33 a# rRegR [32:0] $end
$var reg 32 b# rRegSP [31:0] $end
$scope module registers $end
$var wire 8 c# iAddrA [7:0] $end
$var wire 8 d# iAddrB [7:0] $end
$var wire 1 r" iClk $end
$var wire 32 e# iDInA [31:0] $end
$var wire 32 f# iDInB [31:0] $end
$var wire 1 v" iWriteA $end
$var wire 1 u" iWriteB $end
$var wire 1 g# debug $end
$var reg 32 h# oDOutA [31:0] $end
$var reg 32 i# oDOutB [31:0] $end
$var reg 9 j# rClr [8:0] $end
$upscope $end
$upscope $end
$scope module tbram $end
$var wire 8 k# iAddr [7:0] $end
$var wire 1 7" iClk $end
$var wire 32 l# iData [31:0] $end
$var wire 1 5" iWrite $end
$var wire 32 m# oData [31:0] $end
$var reg 32 n# rDataOut [31:0] $end
$upscope $end
$scope module tbrom $end
$var wire 8 o# iAddr [7:0] $end
$var wire 1 7" iClk $end
$var wire 1 1" iEnable $end
$var wire 32 p# oData [31:0] $end
$var reg 32 q# rDataOut [31:0] $end
$upscope $end
$upscope $end
$upscope $end
$scope module epRISC_testROM $end
$var wire 8 r# iAddr [7:0] $end
$var wire 1 s# iClk $end
$var wire 1 t# iEnable $end
$var wire 32 u# oData [31:0] $end
$var reg 32 v# rDataOut [31:0] $end
$upscope $end
$enddefinitions $end
#0
$dumpvars
bx v#
bx u#
zt#
zs#
bz r#
bx q#
bx p#
bx o#
bx n#
bx m#
bx l#
bx k#
b100000000 j#
bx i#
bx h#
1g#
bx f#
bx e#
bx d#
bx c#
bx b#
bx a#
bx `#
bx _#
bx ^#
bx ]#
bx \#
bx [#
bx Z#
bx Y#
bx X#
bx W#
b0 V#
bx U#
1T#
bx S#
bx R#
bx Q#
bx P#
bx O#
bx N#
bx M#
bx L#
bx K#
bx J#
xI#
xH#
xG#
xF#
bx E#
xD#
xC#
bx B#
xA#
x@#
bx ?#
bx >#
bx =#
bx <#
bx ;#
bx :#
bx 9#
bx 8#
bx 7#
bx 6#
x5#
x4#
x3#
x2#
x1#
x0#
x/#
x.#
x-#
x,#
x+#
x*#
x)#
x(#
x'#
x&#
x%#
x$#
x##
bx "#
bx !#
bx ~"
bx }"
bx |"
bx {"
bx z"
bx y"
bx x"
bx w"
xv"
xu"
bx t"
bx s"
xr"
bx q"
b0 p"
bx o"
bx n"
0m"
xl"
b11011101011011100000011011110 k"
bx j"
bx i"
bx h"
bx g"
bx f"
xe"
bx d"
bx c"
bx b"
bx a"
bx `"
bx _"
bx ^"
bx ]"
bx \"
bx ["
bx Z"
bx Y"
bx X"
bx W"
xV"
bx U"
bx T"
bx S"
xR"
xQ"
bx P"
bx O"
xN"
bx M"
bx L"
bx K"
bx J"
bx I"
bx H"
bx G"
bx F"
bx E"
xD"
bx C"
bx B"
bx A"
bx @"
bx ?"
x>"
bx ="
bx <"
bx ;"
bx :"
x9"
x8"
x7"
06"
x5"
x4"
x3"
x2"
x1"
bx 0"
z/"
0."
bx -"
b0 ,"
b0 +"
b0 *"
z)"
bx ("
bz '"
bx &"
0%"
bx $"
bx #"
bx ""
bx !"
bx ~
bx }
0|
bx {
bx z
bx y
bx x
bx w
bx v
bx u
bx t
bx s
bx r
xq
bx p
xo
xn
bx m
bz l
bz k
bz j
bz i
bz h
1g
0f
xe
xd
xc
xb
xa
x`
x_
x^
x]
x\
x[
xZ
xY
xX
xW
xV
xU
bx T
xS
bx R
bx Q
zP
zO
zN
bz M
zL
zK
zJ
zI
zH
zG
0F
0E
b0 D
1C
0B
0A
0@
b0 ?
b0 >
bz =
bz <
z;
1:
19
z8
z7
z6
z5
z4
z3
z2
z1
z0
z/
z.
bz -
z,
z+
z*
z)
z(
bz '
z&
z%
z$
z#
z"
z!
$end
#4
04"
0>"
03"
02"
11"
b0 k#
b0 o#
b0 A"
0l"
0e"
b0 :"
b0 "#
05"
0v"
0u"
b1 V#
b0 X#
b1 p"
1r"
19"
1f
#5
1|
1%"
16"
0g
#8
0f
#12
b0 ]"
b0 Y"
b0 b"
b0 Z"
b0 i"
b0 `"
b0 W"
b0 ["
b0 d"
b0 \"
0V"
b10 p"
b100100000000000000001000000000 -"
b100100000000000000001000000000 ="
b100100000000000000001000000000 @"
b100100000000000000001000000000 q"
b100100000000000000001000000000 l#
b100100000000000000001000000000 p#
b100100000000000000001000000000 q#
17"
1f
#16
0f
#20
b11111111 c#
0,#
b11111111 y"
b11111111 d#
b11111111 }"
0'#
0&#
b11111111 x"
0)#
03#
04#
0$#
0##
b0 w"
b0 f#
02#
0-#
0.#
0/#
00#
01#
b11111111 |"
0(#
0*#
05#
0%#
0+#
b0 !#
b0 z"
b0 e#
b0 B#
b0 E#
0G#
0F#
0A#
0H#
0I#
0@#
0D#
0C#
b0 S#
b0 J#
b0 9#
b0 ;#
b0 ?#
b0 M#
b0 >#
b0 Q#
b0 K#
b0 L#
b0 :#
b0 8#
b0 =#
b0 <#
b0 R#
b0 O#
b0 N#
b0 P#
b0 7#
b0 6#
b0 ]#
b0 b#
b0 [#
b0 \#
b0 Y#
b0 Z#
b0 `#
b0 U#
b0 a#
b0 ^#
b0 _#
b11 p"
0r"
09"
1f
#24
0f
#28
b0 Q
b0 t
b0 ;"
b0 K"
0Q"
0R"
b0 P"
0N"
b0 M"
b0 O"
b0 T"
b0 a"
b0 U"
b0 h"
b0 S"
b0 X"
b0 p"
07"
1f
#32
0f
#36
b0 {"
b0 ~"
b0 W#
b0 s"
b0 i#
b0 t"
b0 h#
b1 p"
1r"
19"
1f
#40
0f
#44
b10 p"
17"
1f
#48
0f
#52
b11 p"
0r"
09"
1f
#56
0f
#60
b0 p"
07"
1f
#64
0f
#68
b1 p"
1r"
19"
1f
#72
0f
#76
b10 p"
17"
1f
#80
0f
#84
b11 p"
0r"
09"
1f
#88
0f
#92
b0 p"
07"
1f
#96
0f
#100
b10 V#
b1 X#
b1 p"
1r"
19"
1f
0|
0%"
06"
1g
#104
0f
#108
b10 p"
17"
1f
#112
0f
#116
b100 c#
b100 }"
b100 x"
1*#
b1000000000 J#
b1000000000 9#
b1000000000 ;#
b1000000000 ?#
b100 K#
b100 :#
b100 =#
b10 N#
b10 P#
b100100000000000000001000000000 U#
b11 p"
0r"
09"
1f
#120
0f
#124
b0 p"
07"
1f
#128
0f
#132
b11 V#
b10 X#
b1 W#
b1 p"
1r"
19"
1f
#136
0f
#140
b10 p"
17"
1f
#144
0f
#148
b1000000000 w"
b1000000000 f#
b1000000000 S#
b1000000000 Z#
b11 p"
0r"
09"
1f
#152
0f
#156
b0 p"
07"
1f
#160
0f
#164
b11111111 c#
b100 d#
b100 V#
b11 X#
b10 W#
b1 p"
1r"
19"
1f
#168
0f
#172
b10 p"
17"
1f
#176
0f
#180
b1000000000 a#
b11 p"
0r"
09"
1f
#184
0f
#188
b0 p"
07"
1f
#192
0f
#196
b101 V#
b100 X#
b11 W#
b1 p"
1r"
19"
1f
#200
0f
#204
b10 p"
17"
1f
#208
0f
#212
b11 p"
0r"
09"
1f
#216
0f
#220
b0 p"
07"
1f
#224
0f
#228
1u"
b1 V#
b101 X#
b100 W#
b1 p"
1r"
19"
1f
#232
0f
#236
b10 p"
17"
1f
#240
0f
#244
b1 ]#
b11 p"
0r"
09"
1f
#248
0f
#252
b0 p"
07"
1f
#256
0f
#260
b1 k#
b1 o#
b1 A"
0u"
b100 c#
b11111111 d#
b10 V#
b1 :"
b1 "#
b1 X#
b101 W#
b1 p"
1r"
19"
1f
#264
0f
#268
b10 p"
b100111000000010000000000000001 -"
b100111000000010000000000000001 ="
b100111000000010000000000000001 @"
b100111000000010000000000000001 q"
b100111000000010000000000000001 l#
b100111000000010000000000000001 p#
b100111000000010000000000000001 q#
17"
1f
#272
0f
#276
b111 c#
b111 }"
b111 x"
b10000000000000001 J#
b10000000000000001 9#
b10000000000000001 ;#
b10000000000000001 ?#
b1 M#
b110000 >#
b10000 Q#
b111 K#
b111 :#
b111 =#
b1 R#
b0 N#
b0 P#
b1 6#
b100111000000010000000000000001 U#
b11 p"
0r"
09"
1f
#280
0f
#284
b0 p"
07"
1f
#288
0f
#292
b0 k#
b0 o#
b0 A"
b11 V#
b0 :"
b0 "#
b10 X#
b1 W#
b1 p"
1r"
19"
1f
#296
0f
#300
b10 p"
b100100000000000000001000000000 -"
b100100000000000000001000000000 ="
b100100000000000000001000000000 @"
b100100000000000000001000000000 q"
b100100000000000000001000000000 l#
b100100000000000000001000000000 p#
b100100000000000000001000000000 q#
17"
1f
#304
0f
#308
b10000000000000001 w"
b10000000000000001 f#
b10000000000000001 S#
b10000000000000001 Z#
b11 p"
0r"
09"
1f
#312
0f
#316
b0 p"
07"
1f
#320
0f
#324
b11111111 c#
b111 d#
b100 V#
b11 X#
b10 W#
b1 p"
1r"
19"
1f
#328
0f
#332
b10 p"
17"
1f
#336
0f
#340
b10000000000000001 a#
b11 p"
0r"
09"
1f
#344
0f
#348
b0 p"
07"
1f
#352
0f
#356
b101 V#
b100 X#
b11 W#
b1 p"
1r"
19"
1f
#360
0f
#364
b10 p"
17"
1f
#368
0f
#372
b11 p"
0r"
09"
1f
#376
0f
#380
b0 p"
07"
1f
#384
0f
#388
1u"
b1 V#
b101 X#
b100 W#
b1 p"
1r"
19"
1f
#392
0f
#396
b10 p"
17"
1f
#400
0f
#404
b10 ]#
b11 p"
0r"
09"
1f
#408
0f
#412
b0 p"
07"
1f
#416
0f
#420
b10 k#
b10 o#
b10 A"
0u"
b111 c#
b11111111 d#
b10 V#
b10 :"
b10 "#
b1 X#
b101 W#
b1 p"
1r"
19"
1f
#424
0f
#428
b10 p"
b1100100011100000000000000000000 -"
b1100100011100000000000000000000 ="
b1100100011100000000000000000000 @"
b1100100011100000000000000000000 q"
b1100100011100000000000000000000 l#
b1100100011100000000000000000000 p#
b1100100011100000000000000000000 q#
17"
1f
#432
0f
#436
b111 y"
b100 c#
b111 d#
1&#
b100 }"
b111 |"
b11111111 x"
1(#
0*#
b0 J#
b0 9#
b0 ;#
b0 ?#
b0 M#
b111 >#
b111 Q#
b100 K#
b111 L#
b100 :#
b111 8#
b100 =#
b111 <#
b0 R#
b111 7#
b0 6#
b1100100011100000000000000000000 U#
b11 p"
0r"
09"
1f
#440
0f
#444
b0 p"
07"
1f
#448
0f
#452
b1000000000 ~"
b10000000000000001 {"
b0 k#
b0 o#
b0 A"
b11 V#
b0 :"
b0 "#
b1000000000 t"
b1000000000 h#
b10000000000000001 s"
b10000000000000001 i#
b10 X#
b1 W#
b1 p"
1r"
19"
1f
#456
0f
#460
b10 p"
b100100000000000000001000000000 -"
b100100000000000000001000000000 ="
b100100000000000000001000000000 @"
b100100000000000000001000000000 q"
b100100000000000000001000000000 l#
b100100000000000000001000000000 p#
b100100000000000000001000000000 q#
17"
1f
#464
0f
#468
b1000000000 z"
b1000000000 e#
b0 w"
b0 f#
b1000000000 S#
b1000000000 Y#
b0 Z#
b10000000000000001 `#
b11 p"
0r"
09"
1f
#472
0f
#476
b0 p"
07"
1f
#480
0f
#484
b111 c#
b11111111 d#
b100 V#
b11 X#
b10 W#
b1 p"
1r"
19"
1f
#488
0f
#492
b10 p"
17"
1f
#496
0f
#500
b1000000000 a#
b11 p"
0r"
09"
1f
#504
0f
#508
b0 p"
07"
1f
#512
0f
#516
b10000000000000001 ~"
b0 {"
13"
01"
b1000000000 :"
b1000000000 "#
b10000000000000001 -"
b10000000000000001 ="
b10000000000000001 @"
b10000000000000001 q"
b10000000000000001 l#
b10000000000000001 p#
15"
b101 V#
b10000000000000001 t"
b10000000000000001 h#
b0 s"
b0 i#
b100 X#
b11 W#
b1 p"
1r"
19"
1f
#520
0f
#524
b10 p"
17"
1f
#528
0f
#532
b11 p"
0r"
09"
1f
#536
0f
#540
b0 R
b0 u
b0 <"
b0 L"
b0 F"
1Q"
b1 O"
b10000000000000001 S"
b0 p"
07"
1f
#544
0f
#548
03"
11"
b0 :"
b0 "#
b100100000000000000001000000000 -"
b100100000000000000001000000000 ="
b100100000000000000001000000000 @"
b100100000000000000001000000000 q"
b100100000000000000001000000000 l#
b100100000000000000001000000000 p#
05"
b1 V#
b101 X#
b100 W#
b1 p"
1r"
19"
1f
#552
0f
#556
0q
b10 w
b0 T
b0 p
b0 ("
b0 B"
b1 ]"
0D"
b1 y
b1 x
b0 _"
1S
1V"
b1 \"
b10 p"
b10000000000000001 0"
b10000000000000001 ?"
b10000000000000001 m#
b10000000000000001 n#
17"
1f
#560
0f
#564
b11 ]#
b11 p"
0r"
09"
1f
#568
0f
#572
b0 p"
07"
1f
#576
0f
#580
b11 k#
b11 o#
b11 A"
b100 c#
b111 d#
b10 V#
b11 :"
b11 "#
b1 X#
b101 W#
b1 p"
1r"
19"
1f
#584
0f
#588
b0 \"
b10 p"
b100000000000000000000000000 -"
b100000000000000000000000000 ="
b100000000000000000000000000 @"
b100000000000000000000000000 q"
b100000000000000000000000000 l#
b100000000000000000000000000 p#
b100000000000000000000000000 q#
bx 0"
bx ?"
bx m#
bx n#
17"
1f
#592
0f
#596
b11111111 c#
b11111111 }"
0&#
b0 {"
b11111111 y"
b11111111 d#
0(#
1+#
b11111111 |"
b0 >#
b0 Q#
b0 L#
b0 8#
b0 <#
b0 7#
b100000000000000000000000000 U#
b11 p"
0r"
09"
1f
#600
0f
#604
b0 p"
07"
1f
#608
0f
#612
b0 ~"
b0 k#
b0 o#
b0 A"
b11 V#
b0 :"
b0 "#
b10 X#
b1 W#
b0 t"
b0 h#
b1 p"
1r"
19"
1f
#616
0f
#620
0V"
b1 \"
b10 p"
b100100000000000000001000000000 -"
b100100000000000000001000000000 ="
b100100000000000000001000000000 @"
b100100000000000000001000000000 q"
b100100000000000000001000000000 l#
b100100000000000000001000000000 p#
b10000000000000001 0"
b10000000000000001 ?"
b10000000000000001 m#
b10000000000000001 n#
b100100000000000000001000000000 q#
17"
1f
#624
0f
#628
b0 z"
b0 e#
b0 S#
b0 `#
b0 Y#
b11 p"
0r"
09"
1f
#632
0f
#636
b0 p"
07"
1f
#640
0f
#644
b100 V#
b11 X#
b10 W#
b1 p"
1r"
19"
1f
#648
0f
#652
b0 \"
b10 p"
17"
1f
#656
0f
#660
b0 a#
b11 p"
0r"
09"
1f
#664
0f
#668
b0 p"
07"
1f
#672
0f
#676
b101 V#
b100 X#
b11 W#
b1 p"
1r"
19"
1f
#680
0f
#684
b10 ]"
b1 _"
b0 ^"
1V"
b1 \"
b10 p"
17"
1f
#688
0f
#692
b11 p"
0r"
09"
1f
#696
0f
#700
b0 p"
07"
1f
#704
0f
#708
b1 V#
b101 X#
b100 W#
b1 p"
1r"
19"
1f
#712
0f
#716
b0 \"
b10 p"
17"
1f
#720
0f
#724
b100 ]#
b11 p"
0r"
09"
1f
#728
0f
