firmware/testbench/coredump.vcd
$date
	Sun Feb 12 21:43:30 2017
$end
$version
	Icarus Verilog
$end
$timescale
	1s
$end
$scope module epRISC_coreTB $end
$var wire 1 ! bBoardDebug0 $end
$var wire 1 " bBoardDebug1 $end
$var wire 1 # bBoardDebug2 $end
$var wire 1 $ bBoardDebug3 $end
$var wire 1 % bBoardDebug4 $end
$var wire 1 & bBoardDebug5 $end
$var wire 1 ' bGPIO0 $end
$var wire 1 ( bGPIO1 $end
$var wire 1 ) bGPIO10 $end
$var wire 1 * bGPIO11 $end
$var wire 1 + bGPIO12 $end
$var wire 1 , bGPIO13 $end
$var wire 1 - bGPIO14 $end
$var wire 1 . bGPIO15 $end
$var wire 1 / bGPIO2 $end
$var wire 1 0 bGPIO3 $end
$var wire 1 1 bGPIO4 $end
$var wire 1 2 bGPIO5 $end
$var wire 1 3 bGPIO6 $end
$var wire 1 4 bGPIO7 $end
$var wire 1 5 bGPIO8 $end
$var wire 1 6 bGPIO9 $end
$var wire 33 7 bMemoryData [0:32] $end
$var wire 1 8 bPS2Clock $end
$var wire 1 9 bPS2Data $end
$var wire 1 : iBoardReceive $end
$var wire 1 ; iBoardSense $end
$var wire 1 < iBusInterrupt $end
$var wire 1 = iExtBusInterrupt $end
$var wire 4 > iExtBusMISO [3:0] $end
$var wire 1 ? iSPIDetect0 $end
$var wire 1 @ iSPIDetect1 $end
$var wire 1 A iSPIMISO $end
$var wire 1 B iSPIWrite0 $end
$var wire 1 C iSPIWrite1 $end
$var wire 1 D iSerialCTS $end
$var wire 1 E iSerialDCD $end
$var wire 1 F iSerialDSR $end
$var wire 1 G iSerialRX $end
$var wire 1 H iTTLSerialRST $end
$var wire 1 I iTTLSerialRX $end
$var wire 1 J oBoardAcknowledge $end
$var wire 1 K oBoardTransmit $end
$var wire 1 L oExtBusClock $end
$var wire 4 M oExtBusMOSI [3:0] $end
$var wire 2 N oExtBusSS [1:0] $end
$var wire 12 O oMemoryAddress [0:11] $end
$var wire 2 P oMemoryBank [0:1] $end
$var wire 1 Q oMemoryCAS $end
$var wire 1 R oMemoryCKE $end
$var wire 1 S oMemoryCLK $end
$var wire 1 T oMemoryCS $end
$var wire 4 U oMemoryDQM [0:3] $end
$var wire 1 V oMemoryRAS $end
$var wire 1 W oMemoryWE $end
$var wire 1 X oSPIClock $end
$var wire 1 Y oSPIMOSI $end
$var wire 1 Z oSPISelect $end
$var wire 1 [ oSerialDTR $end
$var wire 1 \ oSerialRTS $end
$var wire 1 ] oSerialTX $end
$var wire 1 ^ oTTLSerialTX $end
$var wire 8 _ oVGAColor [7:0] $end
$var wire 1 ` oVGAHorizontal $end
$var wire 1 a oVGAVertical $end
$var wire 2 b oBusSelect [0:1] $end
$var wire 8 c oBusMOSI [0:7] $end
$var wire 1 d oBusClock $end
$var wire 8 e iBusMISO [0:7] $end
$var reg 1 f iBoardClock $end
$var reg 1 g iBoardReset $end
$scope module controller $end
$var wire 1 ! bBoardDebug0 $end
$var wire 1 " bBoardDebug1 $end
$var wire 1 # bBoardDebug2 $end
$var wire 1 $ bBoardDebug3 $end
$var wire 1 % bBoardDebug4 $end
$var wire 1 & bBoardDebug5 $end
$var wire 1 ' bGPIO0 $end
$var wire 1 ( bGPIO1 $end
$var wire 1 ) bGPIO10 $end
$var wire 1 * bGPIO11 $end
$var wire 1 + bGPIO12 $end
$var wire 1 , bGPIO13 $end
$var wire 1 - bGPIO14 $end
$var wire 1 . bGPIO15 $end
$var wire 1 / bGPIO2 $end
$var wire 1 0 bGPIO3 $end
$var wire 1 1 bGPIO4 $end
$var wire 1 2 bGPIO5 $end
$var wire 1 3 bGPIO6 $end
$var wire 1 4 bGPIO7 $end
$var wire 1 5 bGPIO8 $end
$var wire 1 6 bGPIO9 $end
$var wire 1 8 bPS2Clock $end
$var wire 1 9 bPS2Data $end
$var wire 1 f iBoardClock $end
$var wire 1 g iBoardReset $end
$var wire 1 = iExtBusInterrupt $end
$var wire 4 h iExtBusMISO [3:0] $end
$var wire 1 i iReset $end
$var wire 1 ? iSPIDetect0 $end
$var wire 1 @ iSPIDetect1 $end
$var wire 1 A iSPIMISO $end
$var wire 1 B iSPIWrite0 $end
$var wire 1 C iSPIWrite1 $end
$var wire 1 D iSerialCTS $end
$var wire 1 E iSerialDCD $end
$var wire 1 F iSerialDSR $end
$var wire 1 G iSerialRX $end
$var wire 1 H iTTLSerialRST $end
$var wire 1 I iTTLSerialRX $end
$var wire 1 < oBusInterrupt $end
$var wire 1 L oExtBusClock $end
$var wire 4 j oExtBusMOSI [3:0] $end
$var wire 2 k oExtBusSS [1:0] $end
$var wire 1 X oSPIClock $end
$var wire 1 Y oSPIMOSI $end
$var wire 1 Z oSPISelect $end
$var wire 1 [ oSerialDTR $end
$var wire 1 \ oSerialRTS $end
$var wire 1 ] oSerialTX $end
$var wire 1 ^ oTTLSerialTX $end
$var wire 8 l oVGAColor [7:0] $end
$var wire 1 ` oVGAHorizontal $end
$var wire 1 a oVGAVertical $end
$var wire 32 m wInternalMISO [31:0] $end
$var wire 8 n oBusMISO [7:0] $end
$var wire 2 o iBusSelect [1:0] $end
$var wire 8 p iBusMOSI [7:0] $end
$var wire 1 d iBusClock $end
$var reg 32 q rInternalMOSI [31:0] $end
$var reg 4 r rPipeNextState [3:0] $end
$var reg 4 s rPipePrevState [3:0] $end
$var reg 4 t rPipeState [3:0] $end
$scope module testing $end
$var wire 8 u iAddr [7:0] $end
$var wire 32 v iData [31:0] $end
$var wire 1 w iEnable $end
$var wire 1 i iRst $end
$var wire 1 x iWrite $end
$var wire 32 y oData [31:0] $end
$var wire 1 d iClk $end
$upscope $end
$upscope $end
$scope module machine $end
$var wire 1 ! bBoardDebug0 $end
$var wire 1 " bBoardDebug1 $end
$var wire 1 # bBoardDebug2 $end
$var wire 1 $ bBoardDebug3 $end
$var wire 1 % bBoardDebug4 $end
$var wire 1 & bBoardDebug5 $end
$var wire 33 z bMemoryData [0:32] $end
$var wire 1 f iBoardClock $end
$var wire 1 : iBoardReceive $end
$var wire 1 g iBoardReset $end
$var wire 1 ; iBoardSense $end
$var wire 1 < iBusInterrupt $end
$var wire 8 { iBusMISO [0:7] $end
$var wire 1 J oBoardAcknowledge $end
$var wire 1 K oBoardTransmit $end
$var wire 12 | oMemoryAddress [0:11] $end
$var wire 2 } oMemoryBank [0:1] $end
$var wire 1 Q oMemoryCAS $end
$var wire 1 R oMemoryCKE $end
$var wire 1 S oMemoryCLK $end
$var wire 1 T oMemoryCS $end
$var wire 4 ~ oMemoryDQM [0:3] $end
$var wire 1 V oMemoryRAS $end
$var wire 1 W oMemoryWE $end
$var wire 32 !" wCoreBusData [0:31] $end
$var wire 1 "" wCoreBusInterrupt $end
$var wire 1 #" wCoreBusNMInterrupt $end
$var wire 1 $" wCoreBusReset $end
$var wire 1 %" wCoreFlag $end
$var wire 1 &" wEnableROM $end
$var wire 1 '" wEnableRAM $end
$var wire 1 (" wEnableBusControl $end
$var wire 1 )" wCoreHalt $end
$var wire 1 *" wCoreBusWrite $end
$var wire 1 +" wCoreBusMemClock $end
$var wire 1 ," wCoreBusClock $end
$var wire 32 -" wCoreBusAddress [0:31] $end
$var wire 2 ." oBusSelect [0:1] $end
$var wire 8 /" oBusMOSI [0:7] $end
$var wire 1 d oBusClock $end
$scope module bus $end
$var wire 32 0" bData [31:0] $end
$var wire 4 1" iAddress [3:0] $end
$var wire 1 < iBusInterrupt $end
$var wire 8 2" iBusMISO [7:0] $end
$var wire 1 (" iEnable $end
$var wire 1 $" iReset $end
$var wire 1 "" oInterrupt $end
$var wire 32 3" wTrashMISO [31:0] $end
$var wire 1 4" wInternalWriteMISO $end
$var wire 32 5" wInternalDataMOSI [31:0] $end
$var wire 32 6" wDistributionMOSI [31:0] $end
$var wire 32 7" wDataOutMOSI [31:0] $end
$var wire 32 8" wDataOutMISO [31:0] $end
$var wire 32 9" wDataMOSI [31:0] $end
$var wire 32 :" wDataMISO [31:0] $end
$var wire 2 ;" oBusSelect [1:0] $end
$var wire 8 <" oBusMOSI [7:0] $end
$var wire 1 d oBusClock $end
$var wire 1 *" iWrite $end
$var wire 1 +" iMasterClock $end
$var wire 1 +" iClock $end
$var wire 8 =" fTransferCount [7:0] $end
$var wire 1 >" fReceive $end
$var wire 12 ?" fClockStep [11:0] $end
$var wire 2 @" fChipSelect [1:0] $end
$var wire 1 A" fBeginSingle $end
$var wire 1 B" fBeginBlock $end
$var reg 32 C" rConfig [31:0] $end
$var reg 8 D" rCounterMISO [7:0] $end
$var reg 8 E" rCounterMOSI [7:0] $end
$var reg 1 F" rDerivedClock $end
$var reg 32 G" rDirectMISO [31:0] $end
$var reg 32 H" rDirectMOSI [31:0] $end
$var reg 8 I" rInternalCounterMISO [7:0] $end
$var reg 8 J" rInternalCounterMOSI [7:0] $end
$var reg 32 K" rInternalDataMISO [31:0] $end
$var reg 12 L" rMasterClockCount [11:0] $end
$var reg 4 M" rPipeNextState [3:0] $end
$var reg 4 N" rPipePrevState [3:0] $end
$var reg 4 O" rPipeState [3:0] $end
$var reg 8 P" rTransferCount [7:0] $end
$scope module bufferMISO $end
$var wire 8 Q" iAddrA [7:0] $end
$var wire 8 R" iAddrB [7:0] $end
$var wire 1 F" iClkB $end
$var wire 32 S" iDInA [31:0] $end
$var wire 32 T" iDInB [31:0] $end
$var wire 1 $" iRst $end
$var wire 1 U" iWriteA $end
$var wire 1 4" iWriteB $end
$var wire 1 +" iClkA $end
$var reg 32 V" oDOutA [31:0] $end
$var reg 32 W" oDOutB [31:0] $end
$upscope $end
$scope module bufferMOSI $end
$var wire 8 X" iAddrA [7:0] $end
$var wire 8 Y" iAddrB [7:0] $end
$var wire 1 F" iClkB $end
$var wire 32 Z" iDInA [31:0] $end
$var wire 32 [" iDInB [31:0] $end
$var wire 1 $" iRst $end
$var wire 1 \" iWriteA $end
$var wire 1 ]" iWriteB $end
$var wire 1 +" iClkA $end
$var reg 32 ^" oDOutA [31:0] $end
$var reg 32 _" oDOutB [31:0] $end
$upscope $end
$upscope $end
$scope module clock $end
$var wire 1 f iIn $end
$var wire 1 $" iReset $end
$var reg 1 ," oOut $end
$var reg 1 +" oOutNinety $end
$var reg 2 `" rClockSplit [1:0] $end
$upscope $end
$scope module core $end
$var wire 32 a" bData [31:0] $end
$var wire 1 ," iClk $end
$var wire 1 "" iMaskInt $end
$var wire 1 #" iNonMaskInt $end
$var wire 1 $" iRst $end
$var wire 1 %" oFlg $end
$var wire 32 b" wBusOutB [31:0] $end
$var wire 1 c" wClkInt $end
$var wire 32 d" wBusRegB [31:0] $end
$var wire 32 e" wBusRegA [31:0] $end
$var wire 1 f" wBusOutWriteB $end
$var wire 1 g" wBusOutWriteA $end
$var wire 8 h" wBusOutAddrB [7:0] $end
$var wire 8 i" wBusOutAddrA [7:0] $end
$var wire 32 j" wBusOutA [31:0] $end
$var wire 32 k" wBusInB [31:0] $end
$var wire 8 l" wBusInAddrB [7:0] $end
$var wire 8 m" wBusInAddrA [7:0] $end
$var wire 32 n" wBusInA [31:0] $end
$var wire 5 o" wALUOperation [4:0] $end
$var wire 1 *" oWrite $end
$var wire 32 p" oAddr [31:0] $end
$var wire 1 q" mRegisterSwap $end
$var wire 1 r" mRegisterStandard $end
$var wire 1 s" mRegister $end
$var wire 1 t" mLoadStore $end
$var wire 1 u" mLoadLoad $end
$var wire 1 v" mLoad $end
$var wire 1 w" mDirectOR $end
$var wire 1 x" mDirect $end
$var wire 1 y" mCore $end
$var wire 1 z" mBranchStandard $end
$var wire 1 {" mBranchSaveStack $end
$var wire 1 |" mBranchSaveLink $end
$var wire 1 }" mBranchLoadStack $end
$var wire 1 ~" mBranchLoadLink $end
$var wire 1 !# mBranchInterrupt $end
$var wire 1 "# mBranch $end
$var wire 1 ## mALURegisters $end
$var wire 1 $# mALUDirect $end
$var wire 1 %# mALU $end
$var wire 4 &# fRegisterSource [3:0] $end
$var wire 4 '# fRegisterDestination [3:0] $end
$var wire 4 (# fLoadTarget [3:0] $end
$var wire 20 )# fLoadOffset [19:0] $end
$var wire 4 *# fLoadBase [3:0] $end
$var wire 20 +# fDirectValue [19:0] $end
$var wire 4 ,# fDirectShift [3:0] $end
$var wire 4 -# fDirectDestination [3:0] $end
$var wire 6 .# fCoreOperation [5:0] $end
$var wire 20 /# fCoreData [19:0] $end
$var wire 1 0# fCSZero $end
$var wire 1 1# fCSSignExtend $end
$var wire 4 2# fCSRegisterPage [3:0] $end
$var wire 1 3# fCSOver $end
$var wire 1 4# fCSNeg $end
$var wire 4 5# fCSLinkRegister [3:0] $end
$var wire 1 6# fCSInterruptEn $end
$var wire 1 7# fCSHideRegs $end
$var wire 1 8# fCSFlagSet $end
$var wire 1 9# fCSCarry $end
$var wire 20 :# fBranchOffset [19:0] $end
$var wire 4 ;# fBranchCondition [3:0] $end
$var wire 4 <# fBranchBase [3:0] $end
$var wire 8 =# fALUValue [7:0] $end
$var wire 4 ># fALUTermB [3:0] $end
$var wire 4 ?# fALUTermA [3:0] $end
$var wire 4 @# fALUShift [3:0] $end
$var wire 5 A# fALUOperation [4:0] $end
$var wire 4 B# fALUDestination [3:0] $end
$var reg 1 )" oHalt $end
$var reg 33 C# rALUOut [32:0] $end
$var reg 1 D# rExec $end
$var reg 32 E# rInst [31:0] $end
$var reg 4 F# rPipeNextState [3:0] $end
$var reg 4 G# rPipePrevState [3:0] $end
$var reg 4 H# rPipeState [3:0] $end
$var reg 32 I# rRegA [31:0] $end
$var reg 32 J# rRegB [31:0] $end
$var reg 32 K# rRegCS [31:0] $end
$var reg 32 L# rRegGL [31:0] $end
$var reg 32 M# rRegIP [31:0] $end
$var reg 32 N# rRegInterruptBase [31:0] $end
$var reg 96 O# rRegInterruptStack [95:0] $end
$var reg 32 P# rRegM [31:0] $end
$var reg 33 Q# rRegR [32:0] $end
$var reg 32 R# rRegSP [31:0] $end
$scope module registers $end
$var wire 8 S# iAddrA [7:0] $end
$var wire 8 T# iAddrB [7:0] $end
$var wire 1 c" iClk $end
$var wire 32 U# iDInA [31:0] $end
$var wire 32 V# iDInB [31:0] $end
$var wire 1 $" iRst $end
$var wire 1 g" iWriteA $end
$var wire 1 f" iWriteB $end
$var wire 1 W# debug $end
$var reg 32 X# oDOutA [31:0] $end
$var reg 32 Y# oDOutB [31:0] $end
$upscope $end
$upscope $end
$scope module tbram $end
$var wire 32 Z# bData [31:0] $end
$var wire 8 [# iAddr [7:0] $end
$var wire 1 +" iClk $end
$var wire 1 '" iEnable $end
$var wire 1 $" iRst $end
$var wire 1 *" iWrite $end
$var reg 32 \# rDataOut [31:0] $end
$upscope $end
$scope module tbrom $end
$var wire 8 ]# iAddr [7:0] $end
$var wire 1 +" iClk $end
$var wire 1 &" iEnable $end
$var wire 32 ^# oData [31:0] $end
$var reg 32 _# rDataOut [31:0] $end
$upscope $end
$upscope $end
$upscope $end
$enddefinitions $end
#0
$dumpvars
bx _#
bx ^#
bx ]#
bx \#
bx [#
bx Z#
bx Y#
bx X#
xW#
bx V#
bx U#
bx T#
bx S#
bx R#
bx Q#
bx P#
bx O#
bx N#
bx M#
bx L#
bx K#
bx J#
bx I#
bx H#
bx G#
b0 F#
bx E#
1D#
bx C#
bx B#
bx A#
bx @#
bx ?#
bx >#
bx =#
bx <#
bx ;#
bx :#
x9#
x8#
x7#
x6#
bx 5#
x4#
x3#
bx 2#
x1#
x0#
bx /#
bx .#
bx -#
bx ,#
bx +#
bx *#
bx )#
bx (#
bx '#
bx &#
x%#
x$#
x##
x"#
x!#
x~"
x}"
x|"
x{"
xz"
xy"
xx"
xw"
xv"
xu"
xt"
xs"
xr"
xq"
bx p"
bx o"
bx n"
bx m"
bx l"
bx k"
bx j"
bx i"
bx h"
xg"
xf"
bx e"
bx d"
xc"
bx b"
bx a"
b0 `"
bx _"
bx ^"
0]"
x\"
b1011101011011100000011011110 ["
bx Z"
bx Y"
bx X"
bx W"
bx V"
xU"
bx T"
bx S"
bx R"
bx Q"
bx P"
bx O"
bx N"
bx M"
bx L"
bx K"
bx J"
bx I"
bx H"
bx G"
xF"
bx E"
bx D"
bx C"
xB"
xA"
bx @"
bx ?"
x>"
bx ="
bx <"
bx ;"
bx :"
bx 9"
bx 8"
bx 7"
bx 6"
bx 5"
x4"
bx 3"
bx 2"
bx 1"
bx 0"
bx /"
bx ."
bx -"
x,"
x+"
x*"
x)"
x("
x'"
x&"
z%"
0$"
0#"
0""
bx !"
b0 ~
b0 }
b0 |
bx {
bz z
bx y
xx
1w
bx v
bx u
bx t
bx s
bx r
bx q
bx p
bx o
bx n
bx m
bz l
bz k
bz j
zi
bz h
0g
0f
bx e
xd
bx c
bx b
za
z`
bz _
z^
z]
z\
z[
zZ
zY
zX
0W
0V
b0 U
1T
0S
0R
0Q
b0 P
b0 O
bz N
bz M
zL
1K
1J
zI
zH
zG
zF
zE
zD
zC
zB
zA
z@
z?
bz >
z=
z<
z;
z:
z9
z8
bz 7
z6
z5
z4
z3
z2
z1
z0
z/
z.
z-
z,
z+
z*
z)
z(
z'
z&
z%
z$
z#
z"
z!
$end
#4
0)"
0("
0'"
1&"
b0 ]#
b0 [#
b0 1"
0\"
0U"
b0 -"
b0 p"
0*"
0g"
0f"
b1 F#
b0 H#
b1 `"
1c"
1,"
1f
#5
1$"
1g
#8
0f
#12
b0 M"
b0 I"
b0 R"
b0 J"
b0 Y"
b0 P"
b0 G"
b0 K"
b0 T"
b0 L"
0F"
b10 `"
b100100010000010011001101000101 !"
b100100010000010011001101000101 0"
b100100010000010011001101000101 a"
b100100010000010011001101000101 Z#
b100100010000010011001101000101 ^#
b100100010000010011001101000101 _#
1+"
1f
#16
0f
#20
b11111111 S#
0z"
b11111111 i"
b11111111 T#
b11111111 m"
0u"
0t"
b11111111 h"
0w"
0##
0$#
0r"
0q"
0"#
0{"
0|"
0}"
0~"
0!#
b11111111 l"
0v"
0x"
0%#
0s"
0y"
b0 o"
b0 j"
b0 U#
b0 2#
b0 5#
07#
06#
01#
08#
09#
00#
04#
03#
b0 C#
b0 :#
b0 )#
b0 +#
b0 /#
b0 =#
b0 .#
b0 A#
b0 ;#
b0 <#
b0 *#
b0 (#
b0 -#
b0 ,#
b0 B#
b0 ?#
b0 >#
b0 @#
b0 '#
b0 &#
b0 M#
b0 R#
b0 K#
b0 L#
b0 I#
b0 b"
b0 V#
b0 J#
b0 P#
b0 E#
b0 Q#
b0 N#
b0 O#
b11 `"
0c"
0,"
1f
#24
0f
#28
b0 b
b0 o
b0 ."
b0 ;"
0A"
0B"
b0 @"
0>"
b0 ="
b0 ?"
b0 D"
b0 Q"
b0 E"
b0 X"
b0 C"
b0 H"
b0 `"
0+"
1f
#32
0f
#36
b0 G#
b1 `"
1c"
1,"
1f
#40
0f
#44
b10 `"
1+"
1f
#48
0f
#52
b11 `"
0c"
0,"
1f
#56
0f
#60
b0 `"
0+"
1f
#64
0f
#68
b1 `"
1c"
1,"
1f
#72
0f
#76
b10 `"
1+"
1f
#80
0f
#84
b11 `"
0c"
0,"
1f
#88
0f
#92
b0 `"
0+"
1f
#96
0f
#100
b10 F#
b1 H#
b1 `"
1c"
1,"
1f
0$"
0g
#104
0f
#108
b10 `"
1+"
1f
#112
0f
#116
b100 S#
b100 m"
b100 h"
1x"
b10011001101000101 :#
b10011001101000101 )#
b10011001101000101 +#
b10011001101000101 /#
b1000101 =#
b100 .#
b100 A#
b100 ;#
b100 <#
b100 *#
b100 (#
b100 -#
b100 ,#
b1 B#
b11 ?#
b11 >#
b11 @#
b100 '#
b1 &#
b100100010000010011001101000101 E#
b11 `"
0c"
0,"
1f
#120
0f
#124
b0 `"
0+"
1f
#128
0f
#132
b11 F#
b10 H#
b1 G#
b1 `"
1c"
1,"
1f
#136
0f
#140
b10 `"
1+"
1f
#144
0f
#148
bx j"
bx U#
bx C#
bx I#
b100110011010001010000 b"
b100110011010001010000 V#
b100110011010001010000 J#
bx P#
b11 `"
0c"
0,"
1f
#152
0f
#156
b0 `"
0+"
1f
#160
0f
#164
b11111111 S#
b100 T#
b100 F#
b11 H#
b10 G#
b1 `"
1c"
1,"
1f
#168
0f
#172
b10 `"
1+"
1f
#176
0f
#180
bx Q#
b11 `"
0c"
0,"
1f
#184
0f
#188
b0 `"
0+"
1f
#192
0f
#196
b101 F#
b100 H#
b11 G#
b1 `"
1c"
1,"
1f
#200
0f
#204
b10 `"
1+"
1f
#208
0f
#212
b11 `"
0c"
0,"
1f
#216
0f
#220
b0 `"
0+"
1f
#224
0f
#228
1f"
b1 F#
b101 H#
b100 G#
b1 `"
1c"
1,"
1f
#232
0f
#236
b10 `"
1+"
1f
#240
0f
#244
b1 M#
b11 `"
0c"
0,"
1f
#248
0f
#252
b0 `"
0+"
1f
#256
0f
#260
b1 ]#
b1 [#
b1 1"
0f"
b100 S#
b11111111 T#
b10 F#
b1 -"
b1 p"
b1 H#
b101 G#
b1 `"
1c"
1,"
1f
#264
0f
#268
b10 `"
b100101000000000000000000000000 !"
b100101000000000000000000000000 0"
b100101000000000000000000000000 a"
b100101000000000000000000000000 Z#
b100101000000000000000000000000 ^#
b100101000000000000000000000000 _#
1+"
1f
#272
0f
#276
b101 S#
b101 m"
b101 h"
b0 :#
b0 )#
b0 +#
b0 /#
b0 =#
b10000 .#
b10000 A#
b101 ;#
b0 <#
b101 *#
b0 (#
b101 -#
b0 ,#
b0 B#
b0 ?#
b0 >#
b0 @#
b0 '#
b0 &#
b100101000000000000000000000000 E#
b11 `"
0c"
0,"
1f
#280
0f
#284
b0 `"
0+"
1f
#288
0f
#292
b0 ]#
b0 [#
b0 1"
b11 F#
b0 -"
b0 p"
b10 H#
b1 G#
b1 `"
1c"
1,"
1f
#296
0f
#300
b10 `"
b100100010000010011001101000101 !"
b100100010000010011001101000101 0"
b100100010000010011001101000101 a"
b100100010000010011001101000101 Z#
b100100010000010011001101000101 ^#
b100100010000010011001101000101 _#
1+"
1f
#304
0f
#308
b0 b"
b0 V#
b0 J#
b11 `"
0c"
0,"
1f
#312
0f
#316
b0 `"
0+"
1f
#320
0f
#324
b11111111 S#
b101 T#
b100 F#
b11 H#
b10 G#
b1 `"
1c"
1,"
1f
#328
0f
#332
b10 `"
1+"
1f
#336
0f
#340
b11 `"
0c"
0,"
1f
#344
0f
#348
b0 `"
0+"
1f
#352
0f
#356
b101 F#
b100 H#
b11 G#
b1 `"
1c"
1,"
1f
#360
0f
#364
b10 `"
1+"
1f
#368
0f
#372
b11 `"
0c"
0,"
1f
#376
0f
#380
b0 `"
0+"
1f
#384
0f
#388
1f"
b1 F#
b101 H#
b100 G#
b1 `"
1c"
1,"
1f
#392
0f
#396
b10 `"
1+"
1f
#400
0f
#404
b10 M#
b11 `"
0c"
0,"
1f
#408
0f
#412
b0 `"
0+"
1f
#416
0f
#420
b10 ]#
b10 [#
b10 1"
0f"
b101 S#
b11111111 T#
1W#
b10 F#
b10 -"
b10 p"
b1 H#
b101 G#
b1 `"
1c"
1,"
1f
#424
0f
#428
b10 `"
b100110000000000000001000000000 !"
b100110000000000000001000000000 0"
b100110000000000000001000000000 a"
b100110000000000000001000000000 Z#
b100110000000000000001000000000 ^#
b100110000000000000001000000000 _#
1+"
1f
#432
0f
#436
b110 S#
b110 m"
b110 h"
b1000000000 :#
b1000000000 )#
b1000000000 +#
b1000000000 /#
b100000 .#
b0 A#
b110 ;#
b110 *#
b110 -#
b10 >#
b10 @#
b100110000000000000001000000000 E#
b11 `"
0c"
0,"
1f
#440
0f
#444
b0 `"
0+"
1f
#448
0f
#452
b0 ]#
b0 [#
b0 1"
b11 F#
b0 -"
b0 p"
b10 H#
b1 G#
b1 `"
1c"
1,"
1f
#456
0f
#460
b10 `"
b100100010000010011001101000101 !"
b100100010000010011001101000101 0"
b100100010000010011001101000101 a"
b100100010000010011001101000101 Z#
b100100010000010011001101000101 ^#
b100100010000010011001101000101 _#
1+"
1f
#464
0f
#468
b1000000000 b"
b1000000000 V#
b1000000000 J#
b11 `"
0c"
0,"
1f
#472
0f
#476
b0 `"
0+"
1f
#480
0f
#484
b11111111 S#
b110 T#
b100 F#
b11 H#
b10 G#
b1 `"
1c"
1,"
1f
#488
0f
#492
b10 `"
1+"
1f
#496
0f
#500
b11 `"
0c"
0,"
1f
#504
0f
#508
b0 `"
0+"
1f
#512
0f
#516
b101 F#
b100 H#
b11 G#
b1 `"
1c"
1,"
1f
#520
0f
#524
b10 `"
1+"
1f
#528
0f
#532
b11 `"
0c"
0,"
1f
#536
0f
#540
b0 `"
0+"
1f
#544
0f
#548
1f"
b1 F#
b101 H#
b100 G#
b1 `"
1c"
1,"
1f
#552
0f
#556
b10 `"
1+"
1f
#560
0f
#564
b11 M#
b11 `"
0c"
0,"
1f
#568
0f
#572
b0 `"
0+"
1f
#576
0f
#580
b11 ]#
b11 [#
b11 1"
0f"
b110 S#
b11111111 T#
b10 F#
b11 -"
b11 p"
b1 H#
b101 G#
b1 `"
1c"
1,"
1f
#584
0f
#588
b10 `"
b100111000000010000000000000001 !"
b100111000000010000000000000001 0"
b100111000000010000000000000001 a"
b100111000000010000000000000001 Z#
b100111000000010000000000000001 ^#
b100111000000010000000000000001 _#
1+"
1f
#592
0f
#596
b111 S#
b111 m"
b111 h"
b10000000000000001 :#
b10000000000000001 )#
b10000000000000001 +#
b10000000000000001 /#
b1 =#
b110000 .#
b10000 A#
b111 ;#
b111 *#
b111 -#
b1 B#
b0 >#
b0 @#
b1 &#
b100111000000010000000000000001 E#
b11 `"
0c"
0,"
1f
#600
0f
#604
b0 `"
0+"
1f
#608
0f
#612
b0 ]#
b0 [#
b0 1"
b11 F#
b0 -"
b0 p"
b10 H#
b1 G#
b1 `"
1c"
1,"
1f
#616
0f
#620
b10 `"
b100100010000010011001101000101 !"
b100100010000010011001101000101 0"
b100100010000010011001101000101 a"
b100100010000010011001101000101 Z#
b100100010000010011001101000101 ^#
b100100010000010011001101000101 _#
1+"
1f
#624
0f
#628
b10000000000000001 b"
b10000000000000001 V#
b10000000000000001 J#
b11 `"
0c"
0,"
1f
#632
0f
#636
b0 `"
0+"
1f
#640
0f
#644
b11111111 S#
b111 T#
b100 F#
b11 H#
b10 G#
b1 `"
1c"
1,"
1f
#648
0f
#652
b10 `"
1+"
1f
#656
0f
#660
b11 `"
0c"
0,"
1f
#664
0f
#668
b0 `"
0+"
1f
#672
0f
#676
b101 F#
b100 H#
b11 G#
b1 `"
1c"
1,"
1f
#680
0f
#684
b10 `"
1+"
1f
#688
0f
#692
b11 `"
0c"
0,"
1f
#696
0f
#700
b0 `"
0+"
1f
#704
0f
#708
1f"
b1 F#
b101 H#
b100 G#
b1 `"
1c"
1,"
1f
#712
0f
#716
b10 `"
1+"
1f
#720
0f
#724
b100 M#
b11 `"
0c"
0,"
1f
#728
0f
#732
b0 `"
0+"
1f
#736
0f
#740
b100 ]#
b100 [#
b100 1"
0f"
b111 S#
b11111111 T#
b10 F#
b100 -"
b100 p"
b1 H#
b101 G#
b1 `"
1c"
1,"
1f
#744
0f
#748
b10 `"
b1100110011100000000000000000000 !"
b1100110011100000000000000000000 0"
b1100110011100000000000000000000 a"
b1100110011100000000000000000000 Z#
b1100110011100000000000000000000 ^#
b1100110011100000000000000000000 _#
1+"
1f
#752
0f
#756
b111 i"
b110 S#
b111 T#
1t"
b110 m"
b111 l"
b11111111 h"
1v"
0x"
b0 :#
b0 )#
b0 +#
b0 /#
b0 =#
b100111 .#
b111 A#
b110 ;#
b111 <#
b110 *#
b111 (#
b110 -#
b111 ,#
b0 B#
b111 '#
b0 &#
b1100110011100000000000000000000 E#
b11 `"
0c"
0,"
1f
#760
0f
#764
b0 `"
0+"
1f
#768
0f
#772
b1000000000 n"
b10000000000000001 k"
b0 ]#
b0 [#
b0 1"
b11 F#
b0 -"
b0 p"
b1000000000 e"
b1000000000 X#
b10000000000000001 d"
b10000000000000001 Y#
b10 H#
b1 G#
b1 `"
1c"
1,"
1f
#776
0f
#780
b10 `"
b100100010000010011001101000101 !"
b100100010000010011001101000101 0"
b100100010000010011001101000101 a"
b100100010000010011001101000101 Z#
b100100010000010011001101000101 ^#
b100100010000010011001101000101 _#
1+"
1f
#784
0f
#788
b1000000000 j"
b1000000000 U#
b1000000000 C#
b1000000000 I#
b0 b"
b0 V#
b0 J#
b10000000000000001 P#
b11 `"
0c"
0,"
1f
#792
0f
#796
b0 `"
0+"
1f
#800
0f
#804
b111 S#
b11111111 T#
b100 F#
b11 H#
b10 G#
b1 `"
1c"
1,"
1f
#808
0f
#812
b10 `"
1+"
1f
#816
0f
#820
b1000000000 Q#
b11 `"
0c"
0,"
1f
#824
0f
#828
b0 `"
0+"
1f
#832
0f
#836
b10000000000000001 n"
bx k"
1("
0&"
b1000000000 -"
b1000000000 p"
b10000000000000001 !"
b10000000000000001 0"
b10000000000000001 a"
b10000000000000001 Z#
b10000000000000001 ^#
1*"
b101 F#
b10000000000000001 e"
b10000000000000001 X#
bx d"
bx Y#
b100 H#
b11 G#
b1 `"
1c"
1,"
1f
#840
0f
#844
b10 `"
1+"
1f
#848
0f
#852
b11 `"
0c"
0,"
1f
#856
0f
#860
b0 c
b0 p
b0 /"
b0 <"
b0 6"
1A"
b1 ?"
b10000000000000001 C"
b0 `"
0+"
1f
#864
0f
#868
0("
1&"
b0 -"
b0 p"
b100100010000010011001101000101 !"
b100100010000010011001101000101 0"
b100100010000010011001101000101 a"
b100100010000010011001101000101 Z#
b100100010000010011001101000101 ^#
0*"
b1 F#
b101 H#
b100 G#
b1 `"
1c"
1,"
1f
#872
0f
#876
0x
b10 r
b0 e
b0 n
b0 {
b0 2"
b1 M"
04"
b1 t
b1 s
b0 O"
1d
1F"
b1 L"
b10 `"
b10000000000000001 \#
1+"
1f
