firmware/testbench/coredump.vcd
$date
	Sat Mar 18 10:57:29 2017
$end
$version
	Icarus Verilog
$end
$timescale
	1s
$end
$scope module epRISC_coreTB $end
$var wire 1 ! bBoardDebug0 $end
$var wire 1 " bBoardDebug1 $end
$var wire 1 # bBoardDebug2 $end
$var wire 1 $ bBoardDebug3 $end
$var wire 1 % bBoardDebug4 $end
$var wire 1 & bBoardDebug5 $end
$var wire 33 ' bMemoryData [0:32] $end
$var wire 1 ( bPS2Clock $end
$var wire 1 ) bPS2Data $end
$var wire 1 * iBoardReceive $end
$var wire 1 + iBoardSense $end
$var wire 1 , iExtBusInterrupt $end
$var wire 4 - iExtBusMISO [3:0] $end
$var wire 1 . iSPIDetect0 $end
$var wire 1 / iSPIDetect1 $end
$var wire 1 0 iSPIMISO $end
$var wire 1 1 iSPIWrite0 $end
$var wire 1 2 iSPIWrite1 $end
$var wire 1 3 iSerialCTS $end
$var wire 1 4 iSerialDCD $end
$var wire 1 5 iSerialDSR $end
$var wire 1 6 iSerialRX $end
$var wire 1 7 iTTLSerialRST $end
$var wire 1 8 iTTLSerialRX $end
$var wire 1 9 oBoardAcknowledge $end
$var wire 1 : oBoardTransmit $end
$var wire 1 ; oExtBusClock $end
$var wire 4 < oExtBusMOSI [3:0] $end
$var wire 2 = oExtBusSS [1:0] $end
$var wire 12 > oMemoryAddress [0:11] $end
$var wire 2 ? oMemoryBank [0:1] $end
$var wire 1 @ oMemoryCAS $end
$var wire 1 A oMemoryCKE $end
$var wire 1 B oMemoryCLK $end
$var wire 1 C oMemoryCS $end
$var wire 4 D oMemoryDQM [0:3] $end
$var wire 1 E oMemoryRAS $end
$var wire 1 F oMemoryWE $end
$var wire 1 G oSerialDTR $end
$var wire 1 H oSerialRTS $end
$var wire 1 I oSerialTX $end
$var wire 8 J oVGAColor [7:0] $end
$var wire 1 K oVGAHorizontal $end
$var wire 1 L oVGAVertical $end
$var wire 1 M oTTLSerialTX $end
$var wire 1 N oSPISelect $end
$var wire 1 O oSPIMOSI $end
$var wire 1 P oSPIClock $end
$var wire 2 Q oBusSelect [0:1] $end
$var wire 8 R oBusMOSI [0:7] $end
$var wire 1 S oBusClock $end
$var wire 8 T iBusMISO [0:7] $end
$var wire 1 U iBusInterrupt $end
$var wire 1 V bGPIO9 $end
$var wire 1 W bGPIO8 $end
$var wire 1 X bGPIO7 $end
$var wire 1 Y bGPIO6 $end
$var wire 1 Z bGPIO5 $end
$var wire 1 [ bGPIO4 $end
$var wire 1 \ bGPIO3 $end
$var wire 1 ] bGPIO2 $end
$var wire 1 ^ bGPIO15 $end
$var wire 1 _ bGPIO14 $end
$var wire 1 ` bGPIO13 $end
$var wire 1 a bGPIO12 $end
$var wire 1 b bGPIO11 $end
$var wire 1 c bGPIO10 $end
$var wire 1 d bGPIO1 $end
$var wire 1 e bGPIO0 $end
$var reg 1 f iBoardClock $end
$var reg 1 g iBoardReset $end
$scope module controller $end
$var wire 1 ! bBoardDebug0 $end
$var wire 1 " bBoardDebug1 $end
$var wire 1 # bBoardDebug2 $end
$var wire 1 $ bBoardDebug3 $end
$var wire 1 % bBoardDebug4 $end
$var wire 1 & bBoardDebug5 $end
$var wire 1 ( bPS2Clock $end
$var wire 1 ) bPS2Data $end
$var wire 1 f iBoardClock $end
$var wire 1 g iBoardReset $end
$var wire 1 , iExtBusInterrupt $end
$var wire 4 h iExtBusMISO [3:0] $end
$var wire 1 . iSPIDetect0 $end
$var wire 1 / iSPIDetect1 $end
$var wire 1 0 iSPIMISO $end
$var wire 1 1 iSPIWrite0 $end
$var wire 1 2 iSPIWrite1 $end
$var wire 1 3 iSerialCTS $end
$var wire 1 4 iSerialDCD $end
$var wire 1 5 iSerialDSR $end
$var wire 1 6 iSerialRX $end
$var wire 1 7 iTTLSerialRST $end
$var wire 1 8 iTTLSerialRX $end
$var wire 1 i oBrusInterrupt $end
$var wire 1 ; oExtBusClock $end
$var wire 4 j oExtBusMOSI [3:0] $end
$var wire 2 k oExtBusSS [1:0] $end
$var wire 4 l oSPISelect [3:0] $end
$var wire 1 G oSerialDTR $end
$var wire 1 H oSerialRTS $end
$var wire 1 I oSerialTX $end
$var wire 8 m oVGAColor [7:0] $end
$var wire 1 K oVGAHorizontal $end
$var wire 1 L oVGAVertical $end
$var wire 32 n wInternalMISO [31:0] $end
$var wire 1 o wSPICLock $end
$var wire 1 p wSerialClock $end
$var wire 1 q wSPIClock $end
$var wire 1 r wEnableUART $end
$var wire 1 s wEnableSPI $end
$var wire 1 t wEnableRAM $end
$var wire 1 u wEnableGPIO $end
$var wire 1 M oTTLSerialTX $end
$var wire 1 O oSPIMOSI $end
$var wire 1 P oSPIClock $end
$var wire 1 v oBvusInterrupt $end
$var wire 8 w oBusMISO [7:0] $end
$var wire 1 U oBusInterrupt $end
$var wire 1 x mBusWrite $end
$var wire 1 y mBusReset $end
$var wire 16 z mBusData [15:0] $end
$var wire 15 { mBusAddress [14:0] $end
$var wire 2 | iBusSelect [1:0] $end
$var wire 8 } iBusMOSI [7:0] $end
$var wire 1 S iBusClock $end
$var wire 1 V bGPIO9 $end
$var wire 1 W bGPIO8 $end
$var wire 1 X bGPIO7 $end
$var wire 1 Y bGPIO6 $end
$var wire 1 Z bGPIO5 $end
$var wire 1 [ bGPIO4 $end
$var wire 1 \ bGPIO3 $end
$var wire 1 ] bGPIO2 $end
$var wire 1 ^ bGPIO15 $end
$var wire 1 _ bGPIO14 $end
$var wire 1 ` bGPIO13 $end
$var wire 1 a bGPIO12 $end
$var wire 1 b bGPIO11 $end
$var wire 1 c bGPIO10 $end
$var wire 1 d bGPIO1 $end
$var wire 1 e bGPIO0 $end
$var reg 32 ~ rInternalMOSI [31:0] $end
$var reg 4 !" rPipeNextState [3:0] $end
$var reg 4 "" rPipePrevState [3:0] $end
$var reg 4 #" rPipeState [3:0] $end
$scope module bmem $end
$var wire 8 $" iAddr [7:0] $end
$var wire 32 %" iData [31:0] $end
$var wire 1 t iEnable $end
$var wire 1 y iRst $end
$var wire 1 x iWrite $end
$var wire 32 &" oData [31:0] $end
$var wire 1 S iClk $end
$upscope $end
$scope module bspi $end
$var wire 2 '" iAddr [1:0] $end
$var wire 16 (" iData [15:0] $end
$var wire 1 s iEnable $end
$var wire 1 0 iMISO $end
$var wire 1 y iRst $end
$var wire 1 o iTxClk $end
$var wire 1 x iWrite $end
$var wire 1 i oInt $end
$var wire 1 )" oSS $end
$var wire 1 P oSCLK $end
$var wire 1 O oMOSI $end
$var wire 16 *" oData [15:0] $end
$var wire 1 S iClk $end
$var reg 16 +" rControl [15:0] $end
$var reg 8 ," rDataBuf [7:0] $end
$var reg 16 -" rDataIn [15:0] $end
$var reg 16 ." rDataOut [15:0] $end
$var reg 4 /" rNextState [3:0] $end
$var reg 4 0" rPrevState [3:0] $end
$var reg 4 1" rState [3:0] $end
$upscope $end
$scope module clock $end
$var wire 1 f iIn $end
$var reg 1 q oOutSPI $end
$var reg 1 p oOutUART $end
$var reg 4 2" rClockSplit [3:0] $end
$upscope $end
$scope module gpio $end
$var wire 2 3" iAddress [1:0] $end
$var wire 16 4" iData [15:0] $end
$var wire 1 u iEnable $end
$var wire 1 y iReset $end
$var wire 1 x iWrite $end
$var wire 16 5" oData [15:0] $end
$var wire 1 S iClock $end
$var wire 1 V bPort9 $end
$var wire 1 W bPort8 $end
$var wire 1 X bPort7 $end
$var wire 1 Y bPort6 $end
$var wire 1 Z bPort5 $end
$var wire 1 [ bPort4 $end
$var wire 1 \ bPort3 $end
$var wire 1 ] bPort2 $end
$var wire 1 ^ bPort15 $end
$var wire 1 _ bPort14 $end
$var wire 1 ` bPort13 $end
$var wire 1 a bPort12 $end
$var wire 1 b bPort11 $end
$var wire 1 c bPort10 $end
$var wire 1 d bPort1 $end
$var wire 1 e bPort0 $end
$var reg 1 U oInterrupt $end
$var reg 16 6" rDirection [15:0] $end
$var reg 16 7" rInterrupt [15:0] $end
$var reg 16 8" rValue [15:0] $end
$upscope $end
$scope module uart $end
$var wire 2 9" iAddr [1:0] $end
$var wire 16 :" iData [15:0] $end
$var wire 1 r iEnable $end
$var wire 1 8 iRX $end
$var wire 1 y iRst $end
$var wire 1 p iSClk $end
$var wire 1 x iWrite $end
$var wire 1 M oTX $end
$var wire 16 ;" oData [15:0] $end
$var wire 1 S iClk $end
$var reg 1 v oInt $end
$var reg 16 <" rControl [15:0] $end
$var reg 16 =" rDataIn [15:0] $end
$var reg 16 >" rDataOut [15:0] $end
$var reg 8 ?" rRecvDataBuf [7:0] $end
$var reg 6 @" rRecvDataCnt [5:0] $end
$var reg 4 A" rRecvNextState [3:0] $end
$var reg 4 B" rRecvPrevState [3:0] $end
$var reg 4 C" rRecvState [3:0] $end
$var reg 8 D" rSendDataBuf [7:0] $end
$var reg 6 E" rSendDataCnt [5:0] $end
$var reg 4 F" rSendNextState [3:0] $end
$var reg 4 G" rSendPrevState [3:0] $end
$var reg 4 H" rSendState [3:0] $end
$upscope $end
$upscope $end
$scope module machine $end
$var wire 1 ! bBoardDebug0 $end
$var wire 1 # bBoardDebug2 $end
$var wire 1 $ bBoardDebug3 $end
$var wire 1 % bBoardDebug4 $end
$var wire 1 & bBoardDebug5 $end
$var wire 32 I" bMemoryData [31:0] $end
$var wire 1 f iBoardClock $end
$var wire 1 * iBoardReceive $end
$var wire 1 g iBoardReset $end
$var wire 1 + iBoardSense $end
$var wire 1 U iBusInterrupt $end
$var wire 8 J" iBusMISO [7:0] $end
$var wire 1 K" iWrite $end
$var wire 1 9 oBoardAcknowledge $end
$var wire 1 : oBoardTransmit $end
$var wire 12 L" oMemoryAddress [11:0] $end
$var wire 2 M" oMemoryBank [1:0] $end
$var wire 1 @ oMemoryCAS $end
$var wire 1 A oMemoryCKE $end
$var wire 1 B oMemoryCLK $end
$var wire 1 C oMemoryCS $end
$var wire 4 N" oMemoryDQM [3:0] $end
$var wire 1 E oMemoryRAS $end
$var wire 1 F oMemoryWE $end
$var wire 32 O" wCoreBusData [0:31] $end
$var wire 1 P" wCoreBusNMInterrupt $end
$var wire 1 Q" wCoreFlag $end
$var wire 32 R" wRAMData [0:31] $end
$var wire 1 S" wEnableROM $end
$var wire 1 T" wEnableRAM $end
$var wire 1 U" wEnableBusControl $end
$var wire 1 V" wCoreHalt $end
$var wire 1 W" wCoreBusWrite $end
$var wire 1 X" wCoreBusReset $end
$var wire 1 Y" wCoreBusMemClock $end
$var wire 1 Z" wCoreBusInterrupt $end
$var wire 1 [" wCoreBusClock $end
$var wire 32 \" wCoreBusAddress [0:31] $end
$var wire 2 ]" oBusSelect [1:0] $end
$var wire 8 ^" oBusMOSI [7:0] $end
$var wire 1 S oBusClock $end
$scope module bcram $end
$var wire 32 _" bData [31:0] $end
$var wire 1 `" iEnable $end
$var wire 32 a" iData [31:0] $end
$upscope $end
$scope module bus $end
$var wire 32 b" bData [31:0] $end
$var wire 4 c" iAddress [3:0] $end
$var wire 1 U iBusInterrupt $end
$var wire 8 d" iBusMISO [7:0] $end
$var wire 1 U" iEnable $end
$var wire 1 X" iReset $end
$var wire 1 Z" oInterrupt $end
$var wire 32 e" wTrashMISO [31:0] $end
$var wire 1 f" wInternalWriteMISO $end
$var wire 32 g" wInternalDataMOSI [31:0] $end
$var wire 32 h" wDistributionMOSI [31:0] $end
$var wire 32 i" wDataOutMOSI [31:0] $end
$var wire 32 j" wDataOutMISO [31:0] $end
$var wire 32 k" wDataMOSI [31:0] $end
$var wire 32 l" wDataMISO [31:0] $end
$var wire 2 m" oBusSelect [1:0] $end
$var wire 8 n" oBusMOSI [7:0] $end
$var wire 1 S oBusClock $end
$var wire 1 W" iWrite $end
$var wire 1 Y" iMasterClock $end
$var wire 1 Y" iClock $end
$var wire 8 o" fTransferCount [7:0] $end
$var wire 1 p" fReceive $end
$var wire 12 q" fClockStep [11:0] $end
$var wire 2 r" fChipSelect [1:0] $end
$var wire 1 s" fBeginSingle $end
$var wire 1 t" fBeginBlock $end
$var reg 32 u" rConfig [31:0] $end
$var reg 8 v" rCounterMISO [7:0] $end
$var reg 8 w" rCounterMOSI [7:0] $end
$var reg 1 x" rDerivedClock $end
$var reg 32 y" rDirectMISO [31:0] $end
$var reg 32 z" rDirectMOSI [31:0] $end
$var reg 8 {" rInternalCounterMISO [7:0] $end
$var reg 8 |" rInternalCounterMOSI [7:0] $end
$var reg 32 }" rInternalDataMISO [31:0] $end
$var reg 12 ~" rMasterClockCount [11:0] $end
$var reg 4 !# rPipeNextState [3:0] $end
$var reg 4 "# rPipePrevState [3:0] $end
$var reg 4 ## rPipeState [3:0] $end
$var reg 8 $# rTransferCount [7:0] $end
$scope module bufferMISO $end
$var wire 8 %# iAddrA [7:0] $end
$var wire 8 &# iAddrB [7:0] $end
$var wire 1 x" iClkB $end
$var wire 32 '# iDInA [31:0] $end
$var wire 32 (# iDInB [31:0] $end
$var wire 1 )# iWriteA $end
$var wire 1 f" iWriteB $end
$var wire 1 Y" iClkA $end
$var reg 32 *# oDOutA [31:0] $end
$var reg 32 +# oDOutB [31:0] $end
$upscope $end
$scope module bufferMOSI $end
$var wire 8 ,# iAddrA [7:0] $end
$var wire 8 -# iAddrB [7:0] $end
$var wire 1 x" iClkB $end
$var wire 32 .# iDInA [31:0] $end
$var wire 32 /# iDInB [31:0] $end
$var wire 1 0# iWriteA $end
$var wire 1 1# iWriteB $end
$var wire 1 Y" iClkA $end
$var reg 32 2# oDOutA [31:0] $end
$var reg 32 3# oDOutB [31:0] $end
$upscope $end
$upscope $end
$scope module clock $end
$var wire 1 f iIn $end
$var reg 1 [" oOut $end
$var reg 1 Y" oOutNinety $end
$var reg 2 4# rClockSplit [1:0] $end
$upscope $end
$scope module core $end
$var wire 32 5# bData [31:0] $end
$var wire 1 [" iClk $end
$var wire 1 Z" iMaskInt $end
$var wire 1 P" iNonMaskInt $end
$var wire 1 X" iRst $end
$var wire 1 Q" oFlg $end
$var wire 1 6# wClkInt $end
$var wire 32 7# wBusRegB [31:0] $end
$var wire 32 8# wBusRegA [31:0] $end
$var wire 1 9# wBusOutWriteB $end
$var wire 1 :# wBusOutWriteA $end
$var wire 32 ;# wBusOutB [31:0] $end
$var wire 8 <# wBusOutAddrB [7:0] $end
$var wire 8 =# wBusOutAddrA [7:0] $end
$var wire 32 ># wBusOutA [31:0] $end
$var wire 32 ?# wBusInB [31:0] $end
$var wire 8 @# wBusInAddrB [7:0] $end
$var wire 8 A# wBusInAddrA [7:0] $end
$var wire 32 B# wBusInA [31:0] $end
$var wire 5 C# wALUOperation [4:0] $end
$var wire 1 W" oWrite $end
$var wire 32 D# oAddr [31:0] $end
$var wire 1 E# mRegisterSwap $end
$var wire 1 F# mRegisterStandard $end
$var wire 1 G# mRegister $end
$var wire 1 H# mLoadStore $end
$var wire 1 I# mLoadLoad $end
$var wire 1 J# mLoad $end
$var wire 1 K# mDirectOR $end
$var wire 1 L# mDirect $end
$var wire 1 M# mCore $end
$var wire 1 N# mBranchStandard $end
$var wire 1 O# mBranchSaveStack $end
$var wire 1 P# mBranchSaveLink $end
$var wire 1 Q# mBranchLoadStack $end
$var wire 1 R# mBranchLoadLink $end
$var wire 1 S# mBranchInterrupt $end
$var wire 1 T# mBranch $end
$var wire 1 U# mALURegisters $end
$var wire 1 V# mALUDirect $end
$var wire 1 W# mALU $end
$var wire 4 X# fRegisterSource [3:0] $end
$var wire 4 Y# fRegisterDestination [3:0] $end
$var wire 4 Z# fLoadTarget [3:0] $end
$var wire 20 [# fLoadOffset [19:0] $end
$var wire 4 \# fLoadBase [3:0] $end
$var wire 20 ]# fDirectValue [19:0] $end
$var wire 4 ^# fDirectShift [3:0] $end
$var wire 4 _# fDirectDestination [3:0] $end
$var wire 6 `# fCoreOperation [5:0] $end
$var wire 20 a# fCoreData [19:0] $end
$var wire 1 b# fCSZero $end
$var wire 1 c# fCSSignExtend $end
$var wire 4 d# fCSRegisterPage [3:0] $end
$var wire 1 e# fCSOver $end
$var wire 1 f# fCSNeg $end
$var wire 4 g# fCSLinkRegister [3:0] $end
$var wire 1 h# fCSInterruptEn $end
$var wire 1 i# fCSHideRegs $end
$var wire 1 j# fCSFlagSet $end
$var wire 1 k# fCSCarry $end
$var wire 20 l# fBranchOffset [19:0] $end
$var wire 4 m# fBranchCondition [3:0] $end
$var wire 4 n# fBranchBase [3:0] $end
$var wire 8 o# fALUValue [7:0] $end
$var wire 4 p# fALUTermB [3:0] $end
$var wire 4 q# fALUTermA [3:0] $end
$var wire 4 r# fALUShift [3:0] $end
$var wire 5 s# fALUOperation [4:0] $end
$var wire 4 t# fALUDestination [3:0] $end
$var reg 1 V" oHalt $end
$var reg 33 u# rALUOut [32:0] $end
$var reg 1 v# rExec $end
$var reg 32 w# rInst [31:0] $end
$var reg 4 x# rPipeNextState [3:0] $end
$var reg 4 y# rPipePrevState [3:0] $end
$var reg 4 z# rPipeState [3:0] $end
$var reg 32 {# rRegA [31:0] $end
$var reg 32 |# rRegB [31:0] $end
$var reg 32 }# rRegCS [31:0] $end
$var reg 32 ~# rRegGL [31:0] $end
$var reg 32 !$ rRegIP [31:0] $end
$var reg 32 "$ rRegInterruptBase [31:0] $end
$var reg 96 #$ rRegInterruptStack [95:0] $end
$var reg 32 $$ rRegM [31:0] $end
$var reg 33 %$ rRegR [32:0] $end
$var reg 32 &$ rRegSP [31:0] $end
$scope module registers $end
$var wire 8 '$ iAddrA [7:0] $end
$var wire 8 ($ iAddrB [7:0] $end
$var wire 1 6# iClk $end
$var wire 32 )$ iDInA [31:0] $end
$var wire 32 *$ iDInB [31:0] $end
$var wire 1 :# iWriteA $end
$var wire 1 9# iWriteB $end
$var wire 1 +$ debug $end
$var reg 32 ,$ oDOutA [31:0] $end
$var reg 32 -$ oDOutB [31:0] $end
$var reg 9 .$ rClr [8:0] $end
$upscope $end
$upscope $end
$scope module tbram $end
$var wire 8 /$ iAddr [7:0] $end
$var wire 1 Y" iClk $end
$var wire 32 0$ iData [31:0] $end
$var wire 1 W" iWrite $end
$var wire 32 1$ oData [31:0] $end
$var reg 32 2$ rDataOut [31:0] $end
$upscope $end
$scope module tbrom $end
$var wire 8 3$ iAddr [7:0] $end
$var wire 1 Y" iClk $end
$var wire 1 S" iEnable $end
$var wire 32 4$ oData [31:0] $end
$var reg 32 5$ rDataOut [31:0] $end
$upscope $end
$upscope $end
$upscope $end
$scope module epRISC_testROM $end
$var wire 8 6$ iAddr [7:0] $end
$var wire 1 7$ iClk $end
$var wire 1 8$ iEnable $end
$var wire 32 9$ oData [31:0] $end
$var reg 32 :$ rDataOut [31:0] $end
$upscope $end
$enddefinitions $end
#0
$dumpvars
bx :$
bx 9$
z8$
z7$
bz 6$
bx 5$
bx 4$
bx 3$
bx 2$
bx 1$
bx 0$
bx /$
b100000000 .$
bx -$
bx ,$
1+$
bx *$
bx )$
bx ($
bx '$
bx &$
bx %$
bx $$
bx #$
bx "$
bx !$
bx ~#
bx }#
bx |#
bx {#
bx z#
bx y#
b0 x#
bx w#
1v#
bx u#
bx t#
bx s#
bx r#
bx q#
bx p#
bx o#
bx n#
bx m#
bx l#
xk#
xj#
xi#
xh#
bx g#
xf#
xe#
bx d#
xc#
xb#
bx a#
bx `#
bx _#
bx ^#
bx ]#
bx \#
bx [#
bx Z#
bx Y#
bx X#
xW#
xV#
xU#
xT#
xS#
xR#
xQ#
xP#
xO#
xN#
xM#
xL#
xK#
xJ#
xI#
xH#
xG#
xF#
xE#
bx D#
bx C#
bx B#
bx A#
bx @#
bx ?#
bx >#
bx =#
bx <#
bx ;#
x:#
x9#
bx 8#
bx 7#
x6#
bx 5#
b0 4#
bx 3#
bx 2#
01#
x0#
b11011101011011100000011011110 /#
bx .#
bx -#
bx ,#
bx +#
bx *#
x)#
bx (#
bx '#
bx &#
bx %#
bx $#
bx ##
bx "#
bx !#
bx ~"
bx }"
bx |"
bx {"
bx z"
bx y"
xx"
bx w"
bx v"
bx u"
xt"
xs"
bx r"
bx q"
xp"
bx o"
bx n"
bx m"
bx l"
bx k"
bx j"
bx i"
bx h"
bx g"
xf"
bx e"
bx d"
bx c"
bx b"
bx a"
x`"
bx _"
bx ^"
bx ]"
bx \"
x["
xZ"
xY"
0X"
xW"
xV"
xU"
xT"
xS"
bx R"
zQ"
0P"
bx O"
b0 N"
b0 M"
b0 L"
zK"
bx J"
bz I"
bx H"
bx G"
bx F"
bx E"
bx D"
bx C"
bx B"
bx A"
bx @"
bx ?"
bx >"
bx ="
bx <"
bx ;"
bx :"
bx 9"
bx 8"
bx 7"
bx 6"
bx 5"
bx 4"
bx 3"
b0 2"
bx 1"
bx 0"
bx /"
bx ."
bx -"
bx ,"
bx +"
bx *"
0)"
bx ("
bx '"
bx &"
bx %"
bx $"
bx #"
bx ""
bx !"
bx ~
bx }
bx |
bx {
bx z
xy
xx
bx w
xv
xu
xt
xs
xr
0q
0p
zo
bx n
bz m
b0 l
bz k
bz j
zi
bz h
1g
0f
xe
xd
xc
xb
xa
x`
x_
x^
x]
x\
x[
xZ
xY
xX
xW
xV
xU
bx T
xS
bx R
bx Q
xP
xO
0N
xM
zL
zK
bz J
zI
zH
zG
0F
0E
b0 D
1C
0B
0A
0@
b0 ?
b0 >
bz =
bz <
z;
1:
19
z8
z7
z6
z5
z4
z3
z2
z1
z0
z/
z.
bz -
z,
z+
z*
z)
z(
bz '
z&
z%
z$
z#
z"
z!
$end
#4
0V"
0`"
0U"
0T"
1S"
b0 /$
b0 3$
b0 c"
00#
0)#
b0 \"
b0 D#
0W"
0:#
09#
b1 x#
b0 z#
b1 4#
b1 2"
16#
1["
1f
#5
1y
1X"
0g
#8
0f
#12
b0 !#
b0 {"
b0 &#
b0 |"
b0 -#
b0 $#
b0 y"
b0 }"
b0 (#
b0 ~"
0x"
b10 2"
b10 4#
b100100000000000000001000000000 O"
b100100000000000000001000000000 _"
b100100000000000000001000000000 b"
b100100000000000000001000000000 5#
b100100000000000000001000000000 0$
b100100000000000000001000000000 4$
b100100000000000000001000000000 5$
1Y"
1f
#16
0f
#20
b11111111 '$
0N#
b11111111 =#
b11111111 ($
b11111111 A#
0I#
0H#
b11111111 <#
0K#
0U#
0V#
0F#
0E#
b0 ;#
b0 *$
0T#
0O#
0P#
0Q#
0R#
0S#
b11111111 @#
0J#
0L#
0W#
0G#
0M#
b0 C#
b0 >#
b0 )$
b0 d#
b0 g#
0i#
0h#
0c#
0j#
0k#
0b#
0f#
0e#
b0 u#
b0 l#
b0 [#
b0 ]#
b0 a#
b0 o#
b0 `#
b0 s#
b0 m#
b0 n#
b0 \#
b0 Z#
b0 _#
b0 ^#
b0 t#
b0 q#
b0 p#
b0 r#
b0 Y#
b0 X#
b0 !$
b0 &$
b0 }#
b0 ~#
b0 {#
b0 |#
b0 $$
b0 w#
b0 %$
b0 "$
b0 #$
b11 4#
b11 2"
06#
0["
1f
#24
0f
#28
b0 Q
b0 |
b0 ]"
b0 m"
0s"
0t"
b0 r"
0p"
b0 o"
b0 q"
b0 v"
b0 %#
b0 w"
b0 ,#
b0 u"
b0 z"
b100 2"
b0 4#
0Y"
1f
#32
0f
#36
b0 ?#
b0 B#
b0 y#
b0 7#
b0 -$
b0 8#
b0 ,$
b1 4#
b101 2"
16#
1["
1f
#40
0f
#44
b110 2"
b10 4#
1Y"
1f
#48
0f
#52
b11 4#
b111 2"
06#
0["
1f
#56
0f
#60
b1000 2"
b0 4#
1q
0Y"
1f
#64
0f
#68
b1 4#
b1001 2"
16#
1["
1f
#72
0f
#76
b1010 2"
b10 4#
1Y"
1f
#80
0f
#84
b11 4#
b1011 2"
06#
0["
1f
#88
0f
#92
b1100 2"
b0 4#
0Y"
1f
#96
0f
#100
b10 x#
b1 z#
b1 4#
b1101 2"
xy
16#
1["
1f
0X"
1g
#104
0f
#108
b1110 2"
b10 4#
1Y"
1f
#112
0f
#116
b100 '$
b100 A#
b100 <#
1L#
b1000000000 l#
b1000000000 [#
b1000000000 ]#
b1000000000 a#
b100 m#
b100 \#
b100 _#
b10 p#
b10 r#
b100100000000000000001000000000 w#
b11 4#
b1111 2"
06#
0["
1f
#120
0f
#124
0v
b0 2"
b0 4#
1p
0Y"
1f
#128
0f
#132
b11 x#
b10 z#
b1 y#
b1 4#
b1 2"
16#
1["
1f
#136
0f
#140
b10 2"
b10 4#
1Y"
1f
#144
0f
#148
b1000000000 ;#
b1000000000 *$
b1000000000 u#
b1000000000 |#
b11 4#
b11 2"
06#
0["
1f
#152
0f
#156
b100 2"
b0 4#
0Y"
1f
#160
0f
#164
b11111111 '$
b100 ($
b100 x#
b11 z#
b10 y#
b1 4#
b101 2"
16#
1["
1f
#168
0f
#172
b110 2"
b10 4#
1Y"
1f
#176
0f
#180
b1000000000 %$
b11 4#
b111 2"
06#
0["
1f
#184
0f
#188
b1000 2"
b0 4#
0q
0Y"
1f
#192
0f
#196
b101 x#
b100 z#
b11 y#
b1 4#
b1001 2"
16#
1["
1f
#200
0f
#204
b1010 2"
b10 4#
1Y"
1f
#208
0f
#212
b11 4#
b1011 2"
06#
0["
1f
#216
0f
#220
b1100 2"
b0 4#
0Y"
1f
#224
0f
#228
19#
b1 x#
b101 z#
b100 y#
b1 4#
b1101 2"
16#
1["
1f
#232
0f
#236
b1110 2"
b10 4#
1Y"
1f
#240
0f
#244
b1 !$
b11 4#
b1111 2"
06#
0["
1f
#248
0f
#252
b0 2"
b0 4#
0p
0Y"
1f
#256
0f
#260
b1 /$
b1 3$
b1 c"
09#
b100 '$
b11111111 ($
b10 x#
b1 \"
b1 D#
b1 z#
b101 y#
b1 4#
b1 2"
16#
1["
1f
#264
0f
#268
b10 2"
b10 4#
b100111000000010000000000000001 O"
b100111000000010000000000000001 _"
b100111000000010000000000000001 b"
b100111000000010000000000000001 5#
b100111000000010000000000000001 0$
b100111000000010000000000000001 4$
b100111000000010000000000000001 5$
1Y"
1f
#272
0f
#276
b111 '$
b111 A#
b111 <#
b10000000000000001 l#
b10000000000000001 [#
b10000000000000001 ]#
b10000000000000001 a#
b1 o#
b110000 `#
b10000 s#
b111 m#
b111 \#
b111 _#
b1 t#
b0 p#
b0 r#
b1 X#
b100111000000010000000000000001 w#
b11 4#
b11 2"
06#
0["
1f
#280
0f
#284
b100 2"
b0 4#
0Y"
1f
#288
0f
#292
b0 /$
b0 3$
b0 c"
b11 x#
b0 \"
b0 D#
b10 z#
b1 y#
b1 4#
b101 2"
16#
1["
1f
#296
0f
#300
b110 2"
b10 4#
b100100000000000000001000000000 O"
b100100000000000000001000000000 _"
b100100000000000000001000000000 b"
b100100000000000000001000000000 5#
b100100000000000000001000000000 0$
b100100000000000000001000000000 4$
b100100000000000000001000000000 5$
1Y"
1f
#304
0f
#308
b10000000000000001 ;#
b10000000000000001 *$
b10000000000000001 u#
b10000000000000001 |#
b11 4#
b111 2"
06#
0["
1f
#312
0f
#316
b1000 2"
b0 4#
1q
0Y"
1f
#320
0f
#324
b11111111 '$
b111 ($
b100 x#
b11 z#
b10 y#
b1 4#
b1001 2"
16#
1["
1f
#328
0f
#332
b1010 2"
b10 4#
1Y"
1f
#336
0f
#340
b10000000000000001 %$
b11 4#
b1011 2"
06#
0["
1f
#344
0f
#348
b1100 2"
b0 4#
0Y"
1f
#352
0f
#356
b101 x#
b100 z#
b11 y#
b1 4#
b1101 2"
16#
1["
1f
#360
0f
#364
b1110 2"
b10 4#
1Y"
1f
#368
0f
#372
b11 4#
b1111 2"
06#
0["
1f
#376
0f
#380
b0 2"
b0 4#
1p
0Y"
1f
#384
0f
#388
19#
b1 x#
b101 z#
b100 y#
b1 4#
b1 2"
16#
1["
1f
#392
0f
#396
b10 2"
b10 4#
1Y"
1f
#400
0f
#404
b10 !$
b11 4#
b11 2"
06#
0["
1f
#408
0f
#412
b100 2"
b0 4#
0Y"
1f
#416
0f
#420
b10 /$
b10 3$
b10 c"
09#
b111 '$
b11111111 ($
b10 x#
b10 \"
b10 D#
b1 z#
b101 y#
b1 4#
b101 2"
16#
1["
1f
#424
0f
#428
b110 2"
b10 4#
b1100100011100000000000000000000 O"
b1100100011100000000000000000000 _"
b1100100011100000000000000000000 b"
b1100100011100000000000000000000 5#
b1100100011100000000000000000000 0$
b1100100011100000000000000000000 4$
b1100100011100000000000000000000 5$
1Y"
1f
#432
0f
#436
b111 =#
b100 '$
b111 ($
1H#
b100 A#
b111 @#
b11111111 <#
1J#
0L#
b0 l#
b0 [#
b0 ]#
b0 a#
b0 o#
b111 `#
b111 s#
b100 m#
b111 n#
b100 \#
b111 Z#
b100 _#
b111 ^#
b0 t#
b111 Y#
b0 X#
b1100100011100000000000000000000 w#
b11 4#
b111 2"
06#
0["
1f
#440
0f
#444
b1000 2"
b0 4#
0q
0Y"
1f
#448
0f
#452
b1000000000 B#
b10000000000000001 ?#
b0 /$
b0 3$
b0 c"
b11 x#
b0 \"
b0 D#
b1000000000 8#
b1000000000 ,$
b10000000000000001 7#
b10000000000000001 -$
b10 z#
b1 y#
b1 4#
b1001 2"
16#
1["
1f
#456
0f
#460
b1010 2"
b10 4#
b100100000000000000001000000000 O"
b100100000000000000001000000000 _"
b100100000000000000001000000000 b"
b100100000000000000001000000000 5#
b100100000000000000001000000000 0$
b100100000000000000001000000000 4$
b100100000000000000001000000000 5$
1Y"
1f
#464
0f
#468
b1000000000 >#
b1000000000 )$
b0 ;#
b0 *$
b1000000000 u#
b1000000000 {#
b0 |#
b10000000000000001 $$
b11 4#
b1011 2"
06#
0["
1f
#472
0f
#476
b1100 2"
b0 4#
0Y"
1f
#480
0f
#484
b111 '$
b11111111 ($
b100 x#
b11 z#
b10 y#
b1 4#
b1101 2"
16#
1["
1f
#488
0f
#492
b1110 2"
b10 4#
1Y"
1f
#496
0f
