firmware/testbench/coredump.vcd
$date
	Sun Mar 12 22:31:02 2017
$end
$version
	Icarus Verilog
$end
$timescale
	1s
$end
$scope module epRISC_coreTB $end
$var wire 1 ! bBoardDebug0 $end
$var wire 1 " bBoardDebug1 $end
$var wire 1 # bBoardDebug2 $end
$var wire 1 $ bBoardDebug3 $end
$var wire 1 % bBoardDebug4 $end
$var wire 1 & bBoardDebug5 $end
$var wire 33 ' bMemoryData [0:32] $end
$var wire 1 ( bPS2Clock $end
$var wire 1 ) bPS2Data $end
$var wire 1 * iBoardReceive $end
$var wire 1 + iBoardSense $end
$var wire 1 , iExtBusInterrupt $end
$var wire 4 - iExtBusMISO [3:0] $end
$var wire 1 . iSPIDetect0 $end
$var wire 1 / iSPIDetect1 $end
$var wire 1 0 iSPIMISO $end
$var wire 1 1 iSPIWrite0 $end
$var wire 1 2 iSPIWrite1 $end
$var wire 1 3 iSerialCTS $end
$var wire 1 4 iSerialDCD $end
$var wire 1 5 iSerialDSR $end
$var wire 1 6 iSerialRX $end
$var wire 1 7 iTTLSerialRST $end
$var wire 1 8 iTTLSerialRX $end
$var wire 1 9 oBoardAcknowledge $end
$var wire 1 : oBoardTransmit $end
$var wire 1 ; oExtBusClock $end
$var wire 4 < oExtBusMOSI [3:0] $end
$var wire 2 = oExtBusSS [1:0] $end
$var wire 12 > oMemoryAddress [0:11] $end
$var wire 2 ? oMemoryBank [0:1] $end
$var wire 1 @ oMemoryCAS $end
$var wire 1 A oMemoryCKE $end
$var wire 1 B oMemoryCLK $end
$var wire 1 C oMemoryCS $end
$var wire 4 D oMemoryDQM [0:3] $end
$var wire 1 E oMemoryRAS $end
$var wire 1 F oMemoryWE $end
$var wire 1 G oSPIClock $end
$var wire 1 H oSPIMOSI $end
$var wire 1 I oSPISelect $end
$var wire 1 J oSerialDTR $end
$var wire 1 K oSerialRTS $end
$var wire 1 L oSerialTX $end
$var wire 1 M oTTLSerialTX $end
$var wire 8 N oVGAColor [7:0] $end
$var wire 1 O oVGAHorizontal $end
$var wire 1 P oVGAVertical $end
$var wire 2 Q oBusSelect [0:1] $end
$var wire 8 R oBusMOSI [0:7] $end
$var wire 1 S oBusClock $end
$var wire 8 T iBusMISO [0:7] $end
$var wire 1 U iBusInterrupt $end
$var wire 1 V bGPIO9 $end
$var wire 1 W bGPIO8 $end
$var wire 1 X bGPIO7 $end
$var wire 1 Y bGPIO6 $end
$var wire 1 Z bGPIO5 $end
$var wire 1 [ bGPIO4 $end
$var wire 1 \ bGPIO3 $end
$var wire 1 ] bGPIO2 $end
$var wire 1 ^ bGPIO15 $end
$var wire 1 _ bGPIO14 $end
$var wire 1 ` bGPIO13 $end
$var wire 1 a bGPIO12 $end
$var wire 1 b bGPIO11 $end
$var wire 1 c bGPIO10 $end
$var wire 1 d bGPIO1 $end
$var wire 1 e bGPIO0 $end
$var reg 1 f iBoardClock $end
$var reg 1 g iBoardReset $end
$scope module controller $end
$var wire 1 ! bBoardDebug0 $end
$var wire 1 " bBoardDebug1 $end
$var wire 1 # bBoardDebug2 $end
$var wire 1 $ bBoardDebug3 $end
$var wire 1 % bBoardDebug4 $end
$var wire 1 & bBoardDebug5 $end
$var wire 1 ( bPS2Clock $end
$var wire 1 ) bPS2Data $end
$var wire 1 f iBoardClock $end
$var wire 1 g iBoardReset $end
$var wire 1 , iExtBusInterrupt $end
$var wire 4 h iExtBusMISO [3:0] $end
$var wire 1 . iSPIDetect0 $end
$var wire 1 / iSPIDetect1 $end
$var wire 1 0 iSPIMISO $end
$var wire 1 1 iSPIWrite0 $end
$var wire 1 2 iSPIWrite1 $end
$var wire 1 3 iSerialCTS $end
$var wire 1 4 iSerialDCD $end
$var wire 1 5 iSerialDSR $end
$var wire 1 6 iSerialRX $end
$var wire 1 7 iTTLSerialRST $end
$var wire 1 8 iTTLSerialRX $end
$var wire 1 ; oExtBusClock $end
$var wire 4 i oExtBusMOSI [3:0] $end
$var wire 2 j oExtBusSS [1:0] $end
$var wire 1 G oSPIClock $end
$var wire 1 H oSPIMOSI $end
$var wire 1 I oSPISelect $end
$var wire 1 J oSerialDTR $end
$var wire 1 K oSerialRTS $end
$var wire 1 L oSerialTX $end
$var wire 1 M oTTLSerialTX $end
$var wire 8 k oVGAColor [7:0] $end
$var wire 1 O oVGAHorizontal $end
$var wire 1 P oVGAVertical $end
$var wire 32 l wInternalMISO [31:0] $end
$var wire 1 m wEnableRAM $end
$var wire 1 n wEnableGPIO $end
$var wire 8 o oBusMISO [7:0] $end
$var wire 1 U oBusInterrupt $end
$var wire 1 p mBusWrite $end
$var wire 16 q mBusData [15:0] $end
$var wire 15 r mBusAddress [14:0] $end
$var wire 2 s iBusSelect [1:0] $end
$var wire 8 t iBusMOSI [7:0] $end
$var wire 1 S iBusClock $end
$var wire 1 V bGPIO9 $end
$var wire 1 W bGPIO8 $end
$var wire 1 X bGPIO7 $end
$var wire 1 Y bGPIO6 $end
$var wire 1 Z bGPIO5 $end
$var wire 1 [ bGPIO4 $end
$var wire 1 \ bGPIO3 $end
$var wire 1 ] bGPIO2 $end
$var wire 1 ^ bGPIO15 $end
$var wire 1 _ bGPIO14 $end
$var wire 1 ` bGPIO13 $end
$var wire 1 a bGPIO12 $end
$var wire 1 b bGPIO11 $end
$var wire 1 c bGPIO10 $end
$var wire 1 d bGPIO1 $end
$var wire 1 e bGPIO0 $end
$var reg 32 u rInternalMOSI [31:0] $end
$var reg 4 v rPipeNextState [3:0] $end
$var reg 4 w rPipePrevState [3:0] $end
$var reg 4 x rPipeState [3:0] $end
$scope module gpio $end
$var wire 2 y iAddress [1:0] $end
$var wire 16 z iData [15:0] $end
$var wire 1 n iEnable $end
$var wire 1 g iReset $end
$var wire 1 p iWrite $end
$var wire 16 { oData [15:0] $end
$var wire 1 S iClock $end
$var wire 1 V bPort9 $end
$var wire 1 W bPort8 $end
$var wire 1 X bPort7 $end
$var wire 1 Y bPort6 $end
$var wire 1 Z bPort5 $end
$var wire 1 [ bPort4 $end
$var wire 1 \ bPort3 $end
$var wire 1 ] bPort2 $end
$var wire 1 ^ bPort15 $end
$var wire 1 _ bPort14 $end
$var wire 1 ` bPort13 $end
$var wire 1 a bPort12 $end
$var wire 1 b bPort11 $end
$var wire 1 c bPort10 $end
$var wire 1 d bPort1 $end
$var wire 1 e bPort0 $end
$var reg 1 U oInterrupt $end
$var reg 16 | rDirection [15:0] $end
$var reg 16 } rInterrupt [15:0] $end
$var reg 16 ~ rValue [15:0] $end
$upscope $end
$scope module mem $end
$var wire 8 !" iAddr [7:0] $end
$var wire 32 "" iData [31:0] $end
$var wire 1 m iEnable $end
$var wire 1 g iRst $end
$var wire 1 p iWrite $end
$var wire 32 #" oData [31:0] $end
$var wire 1 S iClk $end
$upscope $end
$upscope $end
$scope module machine $end
$var wire 1 ! bBoardDebug0 $end
$var wire 1 # bBoardDebug2 $end
$var wire 1 $ bBoardDebug3 $end
$var wire 1 % bBoardDebug4 $end
$var wire 1 & bBoardDebug5 $end
$var wire 32 $" bMemoryData [31:0] $end
$var wire 1 f iBoardClock $end
$var wire 1 * iBoardReceive $end
$var wire 1 g iBoardReset $end
$var wire 1 + iBoardSense $end
$var wire 1 U iBusInterrupt $end
$var wire 8 %" iBusMISO [7:0] $end
$var wire 1 &" iWrite $end
$var wire 1 9 oBoardAcknowledge $end
$var wire 1 : oBoardTransmit $end
$var wire 12 '" oMemoryAddress [11:0] $end
$var wire 2 (" oMemoryBank [1:0] $end
$var wire 1 @ oMemoryCAS $end
$var wire 1 A oMemoryCKE $end
$var wire 1 B oMemoryCLK $end
$var wire 1 C oMemoryCS $end
$var wire 4 )" oMemoryDQM [3:0] $end
$var wire 1 E oMemoryRAS $end
$var wire 1 F oMemoryWE $end
$var wire 32 *" wCoreBusData [0:31] $end
$var wire 1 +" wCoreBusNMInterrupt $end
$var wire 1 ," wCoreBusReset $end
$var wire 1 -" wCoreFlag $end
$var wire 32 ." wRAMData [0:31] $end
$var wire 1 /" wEnableROM $end
$var wire 1 0" wEnableRAM $end
$var wire 1 1" wEnableBusControl $end
$var wire 1 2" wCoreHalt $end
$var wire 1 3" wCoreBusWrite $end
$var wire 1 4" wCoreBusMemClock $end
$var wire 1 5" wCoreBusInterrupt $end
$var wire 1 6" wCoreBusClock $end
$var wire 32 7" wCoreBusAddress [0:31] $end
$var wire 2 8" oBusSelect [1:0] $end
$var wire 8 9" oBusMOSI [7:0] $end
$var wire 1 S oBusClock $end
$scope module bcram $end
$var wire 32 :" bData [31:0] $end
$var wire 1 ;" iEnable $end
$var wire 32 <" iData [31:0] $end
$upscope $end
$scope module bus $end
$var wire 32 =" bData [31:0] $end
$var wire 4 >" iAddress [3:0] $end
$var wire 1 U iBusInterrupt $end
$var wire 8 ?" iBusMISO [7:0] $end
$var wire 1 1" iEnable $end
$var wire 1 ," iReset $end
$var wire 1 5" oInterrupt $end
$var wire 32 @" wTrashMISO [31:0] $end
$var wire 1 A" wInternalWriteMISO $end
$var wire 32 B" wInternalDataMOSI [31:0] $end
$var wire 32 C" wDistributionMOSI [31:0] $end
$var wire 32 D" wDataOutMOSI [31:0] $end
$var wire 32 E" wDataOutMISO [31:0] $end
$var wire 32 F" wDataMOSI [31:0] $end
$var wire 32 G" wDataMISO [31:0] $end
$var wire 2 H" oBusSelect [1:0] $end
$var wire 8 I" oBusMOSI [7:0] $end
$var wire 1 S oBusClock $end
$var wire 1 3" iWrite $end
$var wire 1 4" iMasterClock $end
$var wire 1 4" iClock $end
$var wire 8 J" fTransferCount [7:0] $end
$var wire 1 K" fReceive $end
$var wire 12 L" fClockStep [11:0] $end
$var wire 2 M" fChipSelect [1:0] $end
$var wire 1 N" fBeginSingle $end
$var wire 1 O" fBeginBlock $end
$var reg 32 P" rConfig [31:0] $end
$var reg 8 Q" rCounterMISO [7:0] $end
$var reg 8 R" rCounterMOSI [7:0] $end
$var reg 1 S" rDerivedClock $end
$var reg 32 T" rDirectMISO [31:0] $end
$var reg 32 U" rDirectMOSI [31:0] $end
$var reg 8 V" rInternalCounterMISO [7:0] $end
$var reg 8 W" rInternalCounterMOSI [7:0] $end
$var reg 32 X" rInternalDataMISO [31:0] $end
$var reg 12 Y" rMasterClockCount [11:0] $end
$var reg 4 Z" rPipeNextState [3:0] $end
$var reg 4 [" rPipePrevState [3:0] $end
$var reg 4 \" rPipeState [3:0] $end
$var reg 8 ]" rTransferCount [7:0] $end
$scope module bufferMISO $end
$var wire 8 ^" iAddrA [7:0] $end
$var wire 8 _" iAddrB [7:0] $end
$var wire 1 S" iClkB $end
$var wire 32 `" iDInA [31:0] $end
$var wire 32 a" iDInB [31:0] $end
$var wire 1 b" iWriteA $end
$var wire 1 A" iWriteB $end
$var wire 1 4" iClkA $end
$var reg 32 c" oDOutA [31:0] $end
$var reg 32 d" oDOutB [31:0] $end
$upscope $end
$scope module bufferMOSI $end
$var wire 8 e" iAddrA [7:0] $end
$var wire 8 f" iAddrB [7:0] $end
$var wire 1 S" iClkB $end
$var wire 32 g" iDInA [31:0] $end
$var wire 32 h" iDInB [31:0] $end
$var wire 1 i" iWriteA $end
$var wire 1 j" iWriteB $end
$var wire 1 4" iClkA $end
$var reg 32 k" oDOutA [31:0] $end
$var reg 32 l" oDOutB [31:0] $end
$upscope $end
$upscope $end
$scope module clock $end
$var wire 1 f iIn $end
$var reg 1 6" oOut $end
$var reg 1 4" oOutNinety $end
$var reg 2 m" rClockSplit [1:0] $end
$upscope $end
$scope module core $end
$var wire 32 n" bData [31:0] $end
$var wire 1 6" iClk $end
$var wire 1 5" iMaskInt $end
$var wire 1 +" iNonMaskInt $end
$var wire 1 ," iRst $end
$var wire 1 -" oFlg $end
$var wire 1 o" wClkInt $end
$var wire 32 p" wBusRegB [31:0] $end
$var wire 32 q" wBusRegA [31:0] $end
$var wire 1 r" wBusOutWriteB $end
$var wire 1 s" wBusOutWriteA $end
$var wire 32 t" wBusOutB [31:0] $end
$var wire 8 u" wBusOutAddrB [7:0] $end
$var wire 8 v" wBusOutAddrA [7:0] $end
$var wire 32 w" wBusOutA [31:0] $end
$var wire 32 x" wBusInB [31:0] $end
$var wire 8 y" wBusInAddrB [7:0] $end
$var wire 8 z" wBusInAddrA [7:0] $end
$var wire 32 {" wBusInA [31:0] $end
$var wire 5 |" wALUOperation [4:0] $end
$var wire 1 3" oWrite $end
$var wire 32 }" oAddr [31:0] $end
$var wire 1 ~" mRegisterSwap $end
$var wire 1 !# mRegisterStandard $end
$var wire 1 "# mRegister $end
$var wire 1 ## mLoadStore $end
$var wire 1 $# mLoadLoad $end
$var wire 1 %# mLoad $end
$var wire 1 &# mDirectOR $end
$var wire 1 '# mDirect $end
$var wire 1 (# mCore $end
$var wire 1 )# mBranchStandard $end
$var wire 1 *# mBranchSaveStack $end
$var wire 1 +# mBranchSaveLink $end
$var wire 1 ,# mBranchLoadStack $end
$var wire 1 -# mBranchLoadLink $end
$var wire 1 .# mBranchInterrupt $end
$var wire 1 /# mBranch $end
$var wire 1 0# mALURegisters $end
$var wire 1 1# mALUDirect $end
$var wire 1 2# mALU $end
$var wire 4 3# fRegisterSource [3:0] $end
$var wire 4 4# fRegisterDestination [3:0] $end
$var wire 4 5# fLoadTarget [3:0] $end
$var wire 20 6# fLoadOffset [19:0] $end
$var wire 4 7# fLoadBase [3:0] $end
$var wire 20 8# fDirectValue [19:0] $end
$var wire 4 9# fDirectShift [3:0] $end
$var wire 4 :# fDirectDestination [3:0] $end
$var wire 6 ;# fCoreOperation [5:0] $end
$var wire 20 <# fCoreData [19:0] $end
$var wire 1 =# fCSZero $end
$var wire 1 ># fCSSignExtend $end
$var wire 4 ?# fCSRegisterPage [3:0] $end
$var wire 1 @# fCSOver $end
$var wire 1 A# fCSNeg $end
$var wire 4 B# fCSLinkRegister [3:0] $end
$var wire 1 C# fCSInterruptEn $end
$var wire 1 D# fCSHideRegs $end
$var wire 1 E# fCSFlagSet $end
$var wire 1 F# fCSCarry $end
$var wire 20 G# fBranchOffset [19:0] $end
$var wire 4 H# fBranchCondition [3:0] $end
$var wire 4 I# fBranchBase [3:0] $end
$var wire 8 J# fALUValue [7:0] $end
$var wire 4 K# fALUTermB [3:0] $end
$var wire 4 L# fALUTermA [3:0] $end
$var wire 4 M# fALUShift [3:0] $end
$var wire 5 N# fALUOperation [4:0] $end
$var wire 4 O# fALUDestination [3:0] $end
$var reg 1 2" oHalt $end
$var reg 33 P# rALUOut [32:0] $end
$var reg 1 Q# rExec $end
$var reg 32 R# rInst [31:0] $end
$var reg 4 S# rPipeNextState [3:0] $end
$var reg 4 T# rPipePrevState [3:0] $end
$var reg 4 U# rPipeState [3:0] $end
$var reg 32 V# rRegA [31:0] $end
$var reg 32 W# rRegB [31:0] $end
$var reg 32 X# rRegCS [31:0] $end
$var reg 32 Y# rRegGL [31:0] $end
$var reg 32 Z# rRegIP [31:0] $end
$var reg 32 [# rRegInterruptBase [31:0] $end
$var reg 96 \# rRegInterruptStack [95:0] $end
$var reg 32 ]# rRegM [31:0] $end
$var reg 33 ^# rRegR [32:0] $end
$var reg 32 _# rRegSP [31:0] $end
$scope module registers $end
$var wire 8 `# iAddrA [7:0] $end
$var wire 8 a# iAddrB [7:0] $end
$var wire 1 o" iClk $end
$var wire 32 b# iDInA [31:0] $end
$var wire 32 c# iDInB [31:0] $end
$var wire 1 s" iWriteA $end
$var wire 1 r" iWriteB $end
$var wire 1 d# debug $end
$var reg 32 e# oDOutA [31:0] $end
$var reg 32 f# oDOutB [31:0] $end
$var reg 9 g# rClr [8:0] $end
$upscope $end
$upscope $end
$scope module tbram $end
$var wire 8 h# iAddr [7:0] $end
$var wire 1 4" iClk $end
$var wire 32 i# iData [31:0] $end
$var wire 1 3" iWrite $end
$var wire 32 j# oData [31:0] $end
$var reg 32 k# rDataOut [31:0] $end
$upscope $end
$scope module tbrom $end
$var wire 8 l# iAddr [7:0] $end
$var wire 1 4" iClk $end
$var wire 1 /" iEnable $end
$var wire 32 m# oData [31:0] $end
$var reg 32 n# rDataOut [31:0] $end
$upscope $end
$upscope $end
$upscope $end
$scope module epRISC_testROM $end
$var wire 8 o# iAddr [7:0] $end
$var wire 1 p# iClk $end
$var wire 1 q# iEnable $end
$var wire 32 r# oData [31:0] $end
$var reg 32 s# rDataOut [31:0] $end
$upscope $end
$enddefinitions $end
#0
$dumpvars
bx s#
bx r#
zq#
zp#
bz o#
bx n#
bx m#
bx l#
bx k#
bx j#
bx i#
bx h#
b100000000 g#
bx f#
bx e#
1d#
bx c#
bx b#
bx a#
bx `#
bx _#
bx ^#
bx ]#
bx \#
bx [#
bx Z#
bx Y#
bx X#
bx W#
bx V#
bx U#
bx T#
b0 S#
bx R#
1Q#
bx P#
bx O#
bx N#
bx M#
bx L#
bx K#
bx J#
bx I#
bx H#
bx G#
xF#
xE#
xD#
xC#
bx B#
xA#
x@#
bx ?#
x>#
x=#
bx <#
bx ;#
bx :#
bx 9#
bx 8#
bx 7#
bx 6#
bx 5#
bx 4#
bx 3#
x2#
x1#
x0#
x/#
x.#
x-#
x,#
x+#
x*#
x)#
x(#
x'#
x&#
x%#
x$#
x##
x"#
x!#
x~"
bx }"
bx |"
bx {"
bx z"
bx y"
bx x"
bx w"
bx v"
bx u"
bx t"
xs"
xr"
bx q"
bx p"
xo"
bx n"
b0 m"
bx l"
bx k"
0j"
xi"
b11011101011011100000011011110 h"
bx g"
bx f"
bx e"
bx d"
bx c"
xb"
bx a"
bx `"
bx _"
bx ^"
bx ]"
bx \"
bx ["
bx Z"
bx Y"
bx X"
bx W"
bx V"
bx U"
bx T"
xS"
bx R"
bx Q"
bx P"
xO"
xN"
bx M"
bx L"
xK"
bx J"
bx I"
bx H"
bx G"
bx F"
bx E"
bx D"
bx C"
bx B"
xA"
bx @"
bx ?"
bx >"
bx ="
bx <"
x;"
bx :"
bx 9"
bx 8"
bx 7"
x6"
x5"
x4"
x3"
x2"
x1"
x0"
x/"
bx ."
z-"
0,"
0+"
bx *"
b0 )"
b0 ("
b0 '"
z&"
bx %"
bz $"
bx #"
bx ""
bx !"
bx ~
bx }
bx |
bx {
bx z
bx y
bx x
bx w
bx v
bx u
bx t
bx s
bx r
bx q
xp
bx o
xn
xm
bx l
bz k
bz j
bz i
bz h
0g
0f
xe
xd
xc
xb
xa
x`
x_
x^
x]
x\
x[
xZ
xY
xX
xW
xV
xU
bx T
xS
bx R
bx Q
zP
zO
bz N
zM
zL
zK
zJ
zI
zH
zG
0F
0E
b0 D
1C
0B
0A
0@
b0 ?
b0 >
bz =
bz <
z;
1:
19
z8
z7
z6
z5
z4
z3
z2
z1
z0
z/
z.
bz -
z,
z+
z*
z)
z(
bz '
z&
z%
z$
z#
z"
z!
$end
#4
02"
0;"
01"
00"
1/"
b0 h#
b0 l#
b0 >"
0i"
0b"
b0 7"
b0 }"
03"
0s"
0r"
b1 S#
b0 U#
b1 m"
1o"
16"
1f
#5
1,"
1g
#8
0f
#12
b0 Z"
b0 V"
b0 _"
b0 W"
b0 f"
b0 ]"
b0 T"
b0 X"
b0 a"
b0 Y"
0S"
b10 m"
b100100000000000000001000000000 *"
b100100000000000000001000000000 :"
b100100000000000000001000000000 ="
b100100000000000000001000000000 n"
b100100000000000000001000000000 i#
b100100000000000000001000000000 m#
b100100000000000000001000000000 n#
14"
1f
#16
0f
#20
b11111111 `#
0)#
b11111111 v"
b11111111 a#
b11111111 z"
0$#
0##
b11111111 u"
0&#
00#
01#
0!#
0~"
b0 t"
b0 c#
0/#
0*#
0+#
0,#
0-#
0.#
b11111111 y"
0%#
0'#
02#
0"#
0(#
b0 |"
b0 w"
b0 b#
b0 ?#
b0 B#
0D#
0C#
0>#
0E#
0F#
0=#
0A#
0@#
b0 P#
b0 G#
b0 6#
b0 8#
b0 <#
b0 J#
b0 ;#
b0 N#
b0 H#
b0 I#
b0 7#
b0 5#
b0 :#
b0 9#
b0 O#
b0 L#
b0 K#
b0 M#
b0 4#
b0 3#
b0 Z#
b0 _#
b0 X#
b0 Y#
b0 V#
b0 W#
b0 ]#
b0 R#
b0 ^#
b0 [#
b0 \#
b11 m"
0o"
06"
1f
#24
0f
#28
b0 Q
b0 s
b0 8"
b0 H"
0N"
0O"
b0 M"
0K"
b0 J"
b0 L"
b0 Q"
b0 ^"
b0 R"
b0 e"
b0 P"
b0 U"
b0 m"
04"
1f
#32
0f
#36
b0 x"
b0 {"
b0 T#
b0 p"
b0 f#
b0 q"
b0 e#
b1 m"
1o"
16"
1f
#40
0f
#44
b10 m"
14"
1f
#48
0f
#52
b11 m"
0o"
06"
1f
#56
0f
#60
b0 m"
04"
1f
#64
0f
#68
b1 m"
1o"
16"
1f
#72
0f
#76
b10 m"
14"
1f
#80
0f
#84
b11 m"
0o"
06"
1f
#88
0f
#92
b0 m"
04"
1f
#96
0f
#100
b10 S#
b1 U#
b1 m"
1o"
16"
1f
0,"
0g
#104
0f
#108
b10 m"
14"
1f
#112
0f
#116
b100 `#
b100 z"
b100 u"
1'#
b1000000000 G#
b1000000000 6#
b1000000000 8#
b1000000000 <#
b100 H#
b100 7#
b100 :#
b10 K#
b10 M#
b100100000000000000001000000000 R#
b11 m"
0o"
06"
1f
#120
0f
#124
b0 m"
04"
1f
#128
0f
#132
b11 S#
b10 U#
b1 T#
b1 m"
1o"
16"
1f
#136
0f
#140
b10 m"
14"
1f
#144
0f
#148
b1000000000 t"
b1000000000 c#
b1000000000 P#
b1000000000 W#
b11 m"
0o"
06"
1f
#152
0f
#156
b0 m"
04"
1f
#160
0f
#164
b11111111 `#
b100 a#
b100 S#
b11 U#
b10 T#
b1 m"
1o"
16"
1f
#168
0f
#172
b10 m"
14"
1f
#176
0f
#180
b1000000000 ^#
b11 m"
0o"
06"
1f
#184
0f
#188
b0 m"
04"
1f
#192
0f
#196
b101 S#
b100 U#
b11 T#
b1 m"
1o"
16"
1f
#200
0f
#204
b10 m"
14"
1f
#208
0f
#212
b11 m"
0o"
06"
1f
#216
0f
#220
b0 m"
04"
1f
#224
0f
#228
1r"
b1 S#
b101 U#
b100 T#
b1 m"
1o"
16"
1f
#232
0f
#236
b10 m"
14"
1f
#240
0f
#244
b1 Z#
b11 m"
0o"
06"
1f
#248
0f
#252
b0 m"
04"
1f
#256
0f
#260
b1 h#
b1 l#
b1 >"
0r"
b100 `#
b11111111 a#
b10 S#
b1 7"
b1 }"
b1 U#
b101 T#
b1 m"
1o"
16"
1f
#264
0f
#268
b10 m"
b100111000000010000000000000001 *"
b100111000000010000000000000001 :"
b100111000000010000000000000001 ="
b100111000000010000000000000001 n"
b100111000000010000000000000001 i#
b100111000000010000000000000001 m#
b100111000000010000000000000001 n#
14"
1f
#272
0f
#276
b111 `#
b111 z"
b111 u"
b10000000000000001 G#
b10000000000000001 6#
b10000000000000001 8#
b10000000000000001 <#
b1 J#
b110000 ;#
b10000 N#
b111 H#
b111 7#
b111 :#
b1 O#
b0 K#
b0 M#
b1 3#
b100111000000010000000000000001 R#
b11 m"
0o"
06"
1f
#280
0f
#284
b0 m"
04"
1f
#288
0f
#292
b0 h#
b0 l#
b0 >"
b11 S#
b0 7"
b0 }"
b10 U#
b1 T#
b1 m"
1o"
16"
1f
#296
0f
#300
b10 m"
b100100000000000000001000000000 *"
b100100000000000000001000000000 :"
b100100000000000000001000000000 ="
b100100000000000000001000000000 n"
b100100000000000000001000000000 i#
b100100000000000000001000000000 m#
b100100000000000000001000000000 n#
14"
1f
#304
0f
#308
b10000000000000001 t"
b10000000000000001 c#
b10000000000000001 P#
b10000000000000001 W#
b11 m"
0o"
06"
1f
#312
0f
#316
b0 m"
04"
1f
#320
0f
#324
b11111111 `#
b111 a#
b100 S#
b11 U#
b10 T#
b1 m"
1o"
16"
1f
#328
0f
#332
b10 m"
14"
1f
#336
0f
#340
b10000000000000001 ^#
b11 m"
0o"
06"
1f
#344
0f
#348
b0 m"
04"
1f
#352
0f
#356
b101 S#
b100 U#
b11 T#
b1 m"
1o"
16"
1f
#360
0f
#364
b10 m"
14"
1f
#368
0f
#372
b11 m"
0o"
06"
1f
#376
0f
#380
b0 m"
04"
1f
#384
0f
#388
1r"
b1 S#
b101 U#
b100 T#
b1 m"
1o"
16"
1f
#392
0f
#396
b10 m"
14"
1f
#400
0f
#404
b10 Z#
b11 m"
0o"
06"
1f
#408
0f
#412
b0 m"
04"
1f
#416
0f
#420
b10 h#
b10 l#
b10 >"
0r"
b111 `#
b11111111 a#
b10 S#
b10 7"
b10 }"
b1 U#
b101 T#
b1 m"
1o"
16"
1f
#424
0f
#428
b10 m"
b1100100011100000000000000000000 *"
b1100100011100000000000000000000 :"
b1100100011100000000000000000000 ="
b1100100011100000000000000000000 n"
b1100100011100000000000000000000 i#
b1100100011100000000000000000000 m#
b1100100011100000000000000000000 n#
14"
1f
#432
0f
#436
b111 v"
b100 `#
b111 a#
1##
b100 z"
b111 y"
b11111111 u"
1%#
0'#
b0 G#
b0 6#
b0 8#
b0 <#
b0 J#
b111 ;#
b111 N#
b100 H#
b111 I#
b100 7#
b111 5#
b100 :#
b111 9#
b0 O#
b111 4#
b0 3#
b1100100011100000000000000000000 R#
b11 m"
0o"
06"
1f
#440
0f
#444
b0 m"
04"
1f
#448
0f
#452
b1000000000 {"
b10000000000000001 x"
b0 h#
b0 l#
b0 >"
b11 S#
b0 7"
b0 }"
b1000000000 q"
b1000000000 e#
b10000000000000001 p"
b10000000000000001 f#
b10 U#
b1 T#
b1 m"
1o"
16"
1f
#456
0f
#460
b10 m"
b100100000000000000001000000000 *"
b100100000000000000001000000000 :"
b100100000000000000001000000000 ="
b100100000000000000001000000000 n"
b100100000000000000001000000000 i#
b100100000000000000001000000000 m#
b100100000000000000001000000000 n#
14"
1f
#464
0f
#468
b1000000000 w"
b1000000000 b#
b0 t"
b0 c#
b1000000000 P#
b1000000000 V#
b0 W#
b10000000000000001 ]#
b11 m"
0o"
06"
1f
#472
0f
#476
b0 m"
04"
1f
#480
0f
#484
b111 `#
b11111111 a#
b100 S#
b11 U#
b10 T#
b1 m"
1o"
16"
1f
#488
0f
#492
b10 m"
14"
1f
#496
0f
#500
b1000000000 ^#
b11 m"
0o"
06"
1f
#504
0f
#508
b0 m"
04"
1f
#512
0f
#516
b10000000000000001 {"
b0 x"
11"
0/"
b1000000000 7"
b1000000000 }"
b10000000000000001 *"
b10000000000000001 :"
b10000000000000001 ="
b10000000000000001 n"
b10000000000000001 i#
b10000000000000001 m#
13"
b101 S#
b10000000000000001 q"
b10000000000000001 e#
b0 p"
b0 f#
b100 U#
b11 T#
b1 m"
1o"
16"
1f
#520
0f
#524
b10 m"
14"
1f
#528
0f
#532
b11 m"
0o"
06"
1f
#536
0f
#540
b0 R
b0 t
b0 9"
b0 I"
b0 C"
1N"
b1 L"
b10000000000000001 P"
b0 m"
04"
1f
#544
0f
#548
01"
1/"
b0 7"
b0 }"
b100100000000000000001000000000 *"
b100100000000000000001000000000 :"
b100100000000000000001000000000 ="
b100100000000000000001000000000 n"
b100100000000000000001000000000 i#
b100100000000000000001000000000 m#
03"
b1 S#
b101 U#
b100 T#
b1 m"
1o"
16"
1f
#552
0f
#556
0p
b10 v
b0 T
b0 o
b0 %"
b0 ?"
b1 Z"
0A"
b1 x
b1 w
b0 \"
1S
1S"
b1 Y"
b10 m"
b10000000000000001 ."
b10000000000000001 <"
b10000000000000001 j#
b10000000000000001 k#
14"
1f
#560
0f
#564
b11 Z#
b11 m"
0o"
06"
1f
#568
0f
#572
b0 m"
04"
1f
#576
0f
#580
b11 h#
b11 l#
b11 >"
b100 `#
b111 a#
b10 S#
b11 7"
b11 }"
b1 U#
b101 T#
b1 m"
1o"
16"
1f
#584
0f
#588
b0 Y"
b10 m"
b100000000000000000000000000 *"
b100000000000000000000000000 :"
b100000000000000000000000000 ="
b100000000000000000000000000 n"
b100000000000000000000000000 i#
b100000000000000000000000000 m#
b100000000000000000000000000 n#
bx ."
bx <"
bx j#
bx k#
14"
1f
#592
0f
#596
b11111111 `#
b11111111 z"
0##
b0 x"
b11111111 v"
b11111111 a#
0%#
1(#
b11111111 y"
b0 ;#
b0 N#
b0 I#
b0 5#
b0 9#
b0 4#
b100000000000000000000000000 R#
b11 m"
0o"
06"
1f
#600
0f
#604
b0 m"
04"
1f
#608
0f
#612
b0 {"
b0 h#
b0 l#
b0 >"
b11 S#
b0 7"
b0 }"
b10 U#
b1 T#
b0 q"
b0 e#
b1 m"
1o"
16"
1f
#616
0f
#620
0S"
b1 Y"
b10 m"
b100100000000000000001000000000 *"
b100100000000000000001000000000 :"
b100100000000000000001000000000 ="
b100100000000000000001000000000 n"
b100100000000000000001000000000 i#
b100100000000000000001000000000 m#
b10000000000000001 ."
b10000000000000001 <"
b10000000000000001 j#
b10000000000000001 k#
b100100000000000000001000000000 n#
14"
1f
#624
0f
#628
b0 w"
b0 b#
b0 P#
b0 ]#
b0 V#
b11 m"
0o"
06"
1f
#632
0f
#636
b0 m"
04"
1f
#640
0f
#644
b100 S#
b11 U#
b10 T#
b1 m"
1o"
16"
1f
#648
0f
#652
b0 Y"
b10 m"
14"
1f
#656
0f
#660
b0 ^#
b11 m"
0o"
06"
1f
#664
0f
#668
b0 m"
04"
1f
#672
0f
#676
b101 S#
b100 U#
b11 T#
b1 m"
1o"
16"
1f
#680
0f
#684
b10 Z"
b1 \"
b0 ["
1S"
b1 Y"
b10 m"
14"
1f
#688
0f
#692
b11 m"
0o"
06"
1f
#696
0f
#700
b0 m"
04"
1f
#704
0f
#708
b1 S#
b101 U#
b100 T#
b1 m"
1o"
16"
1f
#712
0f
#716
b0 Y"
b10 m"
14"
1f
#720
0f
#724
b100 Z#
b11 m"
0o"
06"
1f
#728
0f
#732
b0 m"
04"
1f
#736
0f
