firmware/testbench/coredump.vcd
$date
	Fri Mar 17 22:24:46 2017
$end
$version
	Icarus Verilog
$end
$timescale
	1s
$end
$scope module epRISC_coreTB $end
$var wire 1 ! bBoardDebug0 $end
$var wire 1 " bBoardDebug1 $end
$var wire 1 # bBoardDebug2 $end
$var wire 1 $ bBoardDebug3 $end
$var wire 1 % bBoardDebug4 $end
$var wire 1 & bBoardDebug5 $end
$var wire 33 ' bMemoryData [0:32] $end
$var wire 1 ( bPS2Clock $end
$var wire 1 ) bPS2Data $end
$var wire 1 * iBoardReceive $end
$var wire 1 + iBoardSense $end
$var wire 1 , iExtBusInterrupt $end
$var wire 4 - iExtBusMISO [3:0] $end
$var wire 1 . iSPIDetect0 $end
$var wire 1 / iSPIDetect1 $end
$var wire 1 0 iSPIMISO $end
$var wire 1 1 iSPIWrite0 $end
$var wire 1 2 iSPIWrite1 $end
$var wire 1 3 iSerialCTS $end
$var wire 1 4 iSerialDCD $end
$var wire 1 5 iSerialDSR $end
$var wire 1 6 iSerialRX $end
$var wire 1 7 iTTLSerialRST $end
$var wire 1 8 iTTLSerialRX $end
$var wire 1 9 oBoardAcknowledge $end
$var wire 1 : oBoardTransmit $end
$var wire 1 ; oExtBusClock $end
$var wire 4 < oExtBusMOSI [3:0] $end
$var wire 2 = oExtBusSS [1:0] $end
$var wire 12 > oMemoryAddress [0:11] $end
$var wire 2 ? oMemoryBank [0:1] $end
$var wire 1 @ oMemoryCAS $end
$var wire 1 A oMemoryCKE $end
$var wire 1 B oMemoryCLK $end
$var wire 1 C oMemoryCS $end
$var wire 4 D oMemoryDQM [0:3] $end
$var wire 1 E oMemoryRAS $end
$var wire 1 F oMemoryWE $end
$var wire 1 G oSPIClock $end
$var wire 1 H oSPIMOSI $end
$var wire 1 I oSerialDTR $end
$var wire 1 J oSerialRTS $end
$var wire 1 K oSerialTX $end
$var wire 8 L oVGAColor [7:0] $end
$var wire 1 M oVGAHorizontal $end
$var wire 1 N oVGAVertical $end
$var wire 1 O oTTLSerialTX $end
$var wire 1 P oSPISelect $end
$var wire 2 Q oBusSelect [0:1] $end
$var wire 8 R oBusMOSI [0:7] $end
$var wire 1 S oBusClock $end
$var wire 8 T iBusMISO [0:7] $end
$var wire 1 U iBusInterrupt $end
$var wire 1 V bGPIO9 $end
$var wire 1 W bGPIO8 $end
$var wire 1 X bGPIO7 $end
$var wire 1 Y bGPIO6 $end
$var wire 1 Z bGPIO5 $end
$var wire 1 [ bGPIO4 $end
$var wire 1 \ bGPIO3 $end
$var wire 1 ] bGPIO2 $end
$var wire 1 ^ bGPIO15 $end
$var wire 1 _ bGPIO14 $end
$var wire 1 ` bGPIO13 $end
$var wire 1 a bGPIO12 $end
$var wire 1 b bGPIO11 $end
$var wire 1 c bGPIO10 $end
$var wire 1 d bGPIO1 $end
$var wire 1 e bGPIO0 $end
$var reg 1 f iBoardClock $end
$var reg 1 g iBoardReset $end
$scope module controller $end
$var wire 1 ! bBoardDebug0 $end
$var wire 1 " bBoardDebug1 $end
$var wire 1 # bBoardDebug2 $end
$var wire 1 $ bBoardDebug3 $end
$var wire 1 % bBoardDebug4 $end
$var wire 1 & bBoardDebug5 $end
$var wire 1 ( bPS2Clock $end
$var wire 1 ) bPS2Data $end
$var wire 1 f iBoardClock $end
$var wire 1 g iBoardReset $end
$var wire 1 , iExtBusInterrupt $end
$var wire 4 h iExtBusMISO [3:0] $end
$var wire 1 . iSPIDetect0 $end
$var wire 1 / iSPIDetect1 $end
$var wire 1 0 iSPIMISO $end
$var wire 1 1 iSPIWrite0 $end
$var wire 1 2 iSPIWrite1 $end
$var wire 1 3 iSerialCTS $end
$var wire 1 4 iSerialDCD $end
$var wire 1 5 iSerialDSR $end
$var wire 1 6 iSerialRX $end
$var wire 1 7 iTTLSerialRST $end
$var wire 1 8 iTTLSerialRX $end
$var wire 1 ; oExtBusClock $end
$var wire 4 i oExtBusMOSI [3:0] $end
$var wire 2 j oExtBusSS [1:0] $end
$var wire 1 G oSPIClock $end
$var wire 1 H oSPIMOSI $end
$var wire 4 k oSPISelect [3:0] $end
$var wire 1 I oSerialDTR $end
$var wire 1 J oSerialRTS $end
$var wire 1 K oSerialTX $end
$var wire 8 l oVGAColor [7:0] $end
$var wire 1 M oVGAHorizontal $end
$var wire 1 N oVGAVertical $end
$var wire 32 m wInternalMISO [31:0] $end
$var wire 1 n wSerialClock $end
$var wire 1 o wEnableUART $end
$var wire 1 p wEnableRAM $end
$var wire 1 q wEnableGPIO $end
$var wire 1 O oTTLSerialTX $end
$var wire 1 r oBvusInterrupt $end
$var wire 8 s oBusMISO [7:0] $end
$var wire 1 U oBusInterrupt $end
$var wire 1 t mBusWrite $end
$var wire 16 u mBusData [15:0] $end
$var wire 15 v mBusAddress [14:0] $end
$var wire 2 w iBusSelect [1:0] $end
$var wire 8 x iBusMOSI [7:0] $end
$var wire 1 S iBusClock $end
$var wire 1 V bGPIO9 $end
$var wire 1 W bGPIO8 $end
$var wire 1 X bGPIO7 $end
$var wire 1 Y bGPIO6 $end
$var wire 1 Z bGPIO5 $end
$var wire 1 [ bGPIO4 $end
$var wire 1 \ bGPIO3 $end
$var wire 1 ] bGPIO2 $end
$var wire 1 ^ bGPIO15 $end
$var wire 1 _ bGPIO14 $end
$var wire 1 ` bGPIO13 $end
$var wire 1 a bGPIO12 $end
$var wire 1 b bGPIO11 $end
$var wire 1 c bGPIO10 $end
$var wire 1 d bGPIO1 $end
$var wire 1 e bGPIO0 $end
$var reg 32 y rInternalMOSI [31:0] $end
$var reg 4 z rPipeNextState [3:0] $end
$var reg 4 { rPipePrevState [3:0] $end
$var reg 4 | rPipeState [3:0] $end
$scope module clock $end
$var wire 1 f iIn $end
$var reg 1 n oOutUART $end
$var reg 4 } rClockSplit [3:0] $end
$upscope $end
$scope module gpio $end
$var wire 2 ~ iAddress [1:0] $end
$var wire 16 !" iData [15:0] $end
$var wire 1 q iEnable $end
$var wire 1 "" iReset $end
$var wire 1 t iWrite $end
$var wire 16 #" oData [15:0] $end
$var wire 1 S iClock $end
$var wire 1 V bPort9 $end
$var wire 1 W bPort8 $end
$var wire 1 X bPort7 $end
$var wire 1 Y bPort6 $end
$var wire 1 Z bPort5 $end
$var wire 1 [ bPort4 $end
$var wire 1 \ bPort3 $end
$var wire 1 ] bPort2 $end
$var wire 1 ^ bPort15 $end
$var wire 1 _ bPort14 $end
$var wire 1 ` bPort13 $end
$var wire 1 a bPort12 $end
$var wire 1 b bPort11 $end
$var wire 1 c bPort10 $end
$var wire 1 d bPort1 $end
$var wire 1 e bPort0 $end
$var reg 1 U oInterrupt $end
$var reg 16 $" rDirection [15:0] $end
$var reg 16 %" rInterrupt [15:0] $end
$var reg 16 &" rValue [15:0] $end
$upscope $end
$scope module mem $end
$var wire 8 '" iAddr [7:0] $end
$var wire 32 (" iData [31:0] $end
$var wire 1 p iEnable $end
$var wire 1 )" iRst $end
$var wire 1 t iWrite $end
$var wire 32 *" oData [31:0] $end
$var wire 1 S iClk $end
$upscope $end
$scope module uart $end
$var wire 2 +" iAddr [1:0] $end
$var wire 16 ," iData [15:0] $end
$var wire 1 o iEnable $end
$var wire 1 8 iRX $end
$var wire 1 -" iRst $end
$var wire 1 n iSClk $end
$var wire 1 t iWrite $end
$var wire 1 O oTX $end
$var wire 16 ." oData [15:0] $end
$var wire 1 S iClk $end
$var reg 1 r oInt $end
$var reg 16 /" rControl [15:0] $end
$var reg 16 0" rDataIn [15:0] $end
$var reg 16 1" rDataOut [15:0] $end
$var reg 8 2" rRecvDataBuf [7:0] $end
$var reg 6 3" rRecvDataCnt [5:0] $end
$var reg 4 4" rRecvNextState [3:0] $end
$var reg 4 5" rRecvPrevState [3:0] $end
$var reg 4 6" rRecvState [3:0] $end
$var reg 8 7" rSendDataBuf [7:0] $end
$var reg 6 8" rSendDataCnt [5:0] $end
$var reg 4 9" rSendNextState [3:0] $end
$var reg 4 :" rSendPrevState [3:0] $end
$var reg 4 ;" rSendState [3:0] $end
$upscope $end
$upscope $end
$scope module machine $end
$var wire 1 ! bBoardDebug0 $end
$var wire 1 # bBoardDebug2 $end
$var wire 1 $ bBoardDebug3 $end
$var wire 1 % bBoardDebug4 $end
$var wire 1 & bBoardDebug5 $end
$var wire 32 <" bMemoryData [31:0] $end
$var wire 1 f iBoardClock $end
$var wire 1 * iBoardReceive $end
$var wire 1 g iBoardReset $end
$var wire 1 + iBoardSense $end
$var wire 1 U iBusInterrupt $end
$var wire 8 =" iBusMISO [7:0] $end
$var wire 1 >" iWrite $end
$var wire 1 9 oBoardAcknowledge $end
$var wire 1 : oBoardTransmit $end
$var wire 12 ?" oMemoryAddress [11:0] $end
$var wire 2 @" oMemoryBank [1:0] $end
$var wire 1 @ oMemoryCAS $end
$var wire 1 A oMemoryCKE $end
$var wire 1 B oMemoryCLK $end
$var wire 1 C oMemoryCS $end
$var wire 4 A" oMemoryDQM [3:0] $end
$var wire 1 E oMemoryRAS $end
$var wire 1 F oMemoryWE $end
$var wire 32 B" wCoreBusData [0:31] $end
$var wire 1 C" wCoreBusNMInterrupt $end
$var wire 1 D" wCoreFlag $end
$var wire 32 E" wRAMData [0:31] $end
$var wire 1 F" wEnableROM $end
$var wire 1 G" wEnableRAM $end
$var wire 1 H" wEnableBusControl $end
$var wire 1 I" wCoreHalt $end
$var wire 1 J" wCoreBusWrite $end
$var wire 1 K" wCoreBusReset $end
$var wire 1 L" wCoreBusMemClock $end
$var wire 1 M" wCoreBusInterrupt $end
$var wire 1 N" wCoreBusClock $end
$var wire 32 O" wCoreBusAddress [0:31] $end
$var wire 2 P" oBusSelect [1:0] $end
$var wire 8 Q" oBusMOSI [7:0] $end
$var wire 1 S oBusClock $end
$scope module bcram $end
$var wire 32 R" bData [31:0] $end
$var wire 1 S" iEnable $end
$var wire 32 T" iData [31:0] $end
$upscope $end
$scope module bus $end
$var wire 32 U" bData [31:0] $end
$var wire 4 V" iAddress [3:0] $end
$var wire 1 U iBusInterrupt $end
$var wire 8 W" iBusMISO [7:0] $end
$var wire 1 H" iEnable $end
$var wire 1 K" iReset $end
$var wire 1 M" oInterrupt $end
$var wire 32 X" wTrashMISO [31:0] $end
$var wire 1 Y" wInternalWriteMISO $end
$var wire 32 Z" wInternalDataMOSI [31:0] $end
$var wire 32 [" wDistributionMOSI [31:0] $end
$var wire 32 \" wDataOutMOSI [31:0] $end
$var wire 32 ]" wDataOutMISO [31:0] $end
$var wire 32 ^" wDataMOSI [31:0] $end
$var wire 32 _" wDataMISO [31:0] $end
$var wire 2 `" oBusSelect [1:0] $end
$var wire 8 a" oBusMOSI [7:0] $end
$var wire 1 S oBusClock $end
$var wire 1 J" iWrite $end
$var wire 1 L" iMasterClock $end
$var wire 1 L" iClock $end
$var wire 8 b" fTransferCount [7:0] $end
$var wire 1 c" fReceive $end
$var wire 12 d" fClockStep [11:0] $end
$var wire 2 e" fChipSelect [1:0] $end
$var wire 1 f" fBeginSingle $end
$var wire 1 g" fBeginBlock $end
$var reg 32 h" rConfig [31:0] $end
$var reg 8 i" rCounterMISO [7:0] $end
$var reg 8 j" rCounterMOSI [7:0] $end
$var reg 1 k" rDerivedClock $end
$var reg 32 l" rDirectMISO [31:0] $end
$var reg 32 m" rDirectMOSI [31:0] $end
$var reg 8 n" rInternalCounterMISO [7:0] $end
$var reg 8 o" rInternalCounterMOSI [7:0] $end
$var reg 32 p" rInternalDataMISO [31:0] $end
$var reg 12 q" rMasterClockCount [11:0] $end
$var reg 4 r" rPipeNextState [3:0] $end
$var reg 4 s" rPipePrevState [3:0] $end
$var reg 4 t" rPipeState [3:0] $end
$var reg 8 u" rTransferCount [7:0] $end
$scope module bufferMISO $end
$var wire 8 v" iAddrA [7:0] $end
$var wire 8 w" iAddrB [7:0] $end
$var wire 1 k" iClkB $end
$var wire 32 x" iDInA [31:0] $end
$var wire 32 y" iDInB [31:0] $end
$var wire 1 z" iWriteA $end
$var wire 1 Y" iWriteB $end
$var wire 1 L" iClkA $end
$var reg 32 {" oDOutA [31:0] $end
$var reg 32 |" oDOutB [31:0] $end
$upscope $end
$scope module bufferMOSI $end
$var wire 8 }" iAddrA [7:0] $end
$var wire 8 ~" iAddrB [7:0] $end
$var wire 1 k" iClkB $end
$var wire 32 !# iDInA [31:0] $end
$var wire 32 "# iDInB [31:0] $end
$var wire 1 ## iWriteA $end
$var wire 1 $# iWriteB $end
$var wire 1 L" iClkA $end
$var reg 32 %# oDOutA [31:0] $end
$var reg 32 &# oDOutB [31:0] $end
$upscope $end
$upscope $end
$scope module clock $end
$var wire 1 f iIn $end
$var reg 1 N" oOut $end
$var reg 1 L" oOutNinety $end
$var reg 2 '# rClockSplit [1:0] $end
$upscope $end
$scope module core $end
$var wire 32 (# bData [31:0] $end
$var wire 1 N" iClk $end
$var wire 1 M" iMaskInt $end
$var wire 1 C" iNonMaskInt $end
$var wire 1 K" iRst $end
$var wire 1 D" oFlg $end
$var wire 1 )# wClkInt $end
$var wire 32 *# wBusRegB [31:0] $end
$var wire 32 +# wBusRegA [31:0] $end
$var wire 1 ,# wBusOutWriteB $end
$var wire 1 -# wBusOutWriteA $end
$var wire 32 .# wBusOutB [31:0] $end
$var wire 8 /# wBusOutAddrB [7:0] $end
$var wire 8 0# wBusOutAddrA [7:0] $end
$var wire 32 1# wBusOutA [31:0] $end
$var wire 32 2# wBusInB [31:0] $end
$var wire 8 3# wBusInAddrB [7:0] $end
$var wire 8 4# wBusInAddrA [7:0] $end
$var wire 32 5# wBusInA [31:0] $end
$var wire 5 6# wALUOperation [4:0] $end
$var wire 1 J" oWrite $end
$var wire 32 7# oAddr [31:0] $end
$var wire 1 8# mRegisterSwap $end
$var wire 1 9# mRegisterStandard $end
$var wire 1 :# mRegister $end
$var wire 1 ;# mLoadStore $end
$var wire 1 <# mLoadLoad $end
$var wire 1 =# mLoad $end
$var wire 1 ># mDirectOR $end
$var wire 1 ?# mDirect $end
$var wire 1 @# mCore $end
$var wire 1 A# mBranchStandard $end
$var wire 1 B# mBranchSaveStack $end
$var wire 1 C# mBranchSaveLink $end
$var wire 1 D# mBranchLoadStack $end
$var wire 1 E# mBranchLoadLink $end
$var wire 1 F# mBranchInterrupt $end
$var wire 1 G# mBranch $end
$var wire 1 H# mALURegisters $end
$var wire 1 I# mALUDirect $end
$var wire 1 J# mALU $end
$var wire 4 K# fRegisterSource [3:0] $end
$var wire 4 L# fRegisterDestination [3:0] $end
$var wire 4 M# fLoadTarget [3:0] $end
$var wire 20 N# fLoadOffset [19:0] $end
$var wire 4 O# fLoadBase [3:0] $end
$var wire 20 P# fDirectValue [19:0] $end
$var wire 4 Q# fDirectShift [3:0] $end
$var wire 4 R# fDirectDestination [3:0] $end
$var wire 6 S# fCoreOperation [5:0] $end
$var wire 20 T# fCoreData [19:0] $end
$var wire 1 U# fCSZero $end
$var wire 1 V# fCSSignExtend $end
$var wire 4 W# fCSRegisterPage [3:0] $end
$var wire 1 X# fCSOver $end
$var wire 1 Y# fCSNeg $end
$var wire 4 Z# fCSLinkRegister [3:0] $end
$var wire 1 [# fCSInterruptEn $end
$var wire 1 \# fCSHideRegs $end
$var wire 1 ]# fCSFlagSet $end
$var wire 1 ^# fCSCarry $end
$var wire 20 _# fBranchOffset [19:0] $end
$var wire 4 `# fBranchCondition [3:0] $end
$var wire 4 a# fBranchBase [3:0] $end
$var wire 8 b# fALUValue [7:0] $end
$var wire 4 c# fALUTermB [3:0] $end
$var wire 4 d# fALUTermA [3:0] $end
$var wire 4 e# fALUShift [3:0] $end
$var wire 5 f# fALUOperation [4:0] $end
$var wire 4 g# fALUDestination [3:0] $end
$var reg 1 I" oHalt $end
$var reg 33 h# rALUOut [32:0] $end
$var reg 1 i# rExec $end
$var reg 32 j# rInst [31:0] $end
$var reg 4 k# rPipeNextState [3:0] $end
$var reg 4 l# rPipePrevState [3:0] $end
$var reg 4 m# rPipeState [3:0] $end
$var reg 32 n# rRegA [31:0] $end
$var reg 32 o# rRegB [31:0] $end
$var reg 32 p# rRegCS [31:0] $end
$var reg 32 q# rRegGL [31:0] $end
$var reg 32 r# rRegIP [31:0] $end
$var reg 32 s# rRegInterruptBase [31:0] $end
$var reg 96 t# rRegInterruptStack [95:0] $end
$var reg 32 u# rRegM [31:0] $end
$var reg 33 v# rRegR [32:0] $end
$var reg 32 w# rRegSP [31:0] $end
$scope module registers $end
$var wire 8 x# iAddrA [7:0] $end
$var wire 8 y# iAddrB [7:0] $end
$var wire 1 )# iClk $end
$var wire 32 z# iDInA [31:0] $end
$var wire 32 {# iDInB [31:0] $end
$var wire 1 -# iWriteA $end
$var wire 1 ,# iWriteB $end
$var wire 1 |# debug $end
$var reg 32 }# oDOutA [31:0] $end
$var reg 32 ~# oDOutB [31:0] $end
$var reg 9 !$ rClr [8:0] $end
$upscope $end
$upscope $end
$scope module tbram $end
$var wire 8 "$ iAddr [7:0] $end
$var wire 1 L" iClk $end
$var wire 32 #$ iData [31:0] $end
$var wire 1 J" iWrite $end
$var wire 32 $$ oData [31:0] $end
$var reg 32 %$ rDataOut [31:0] $end
$upscope $end
$scope module tbrom $end
$var wire 8 &$ iAddr [7:0] $end
$var wire 1 L" iClk $end
$var wire 1 F" iEnable $end
$var wire 32 '$ oData [31:0] $end
$var reg 32 ($ rDataOut [31:0] $end
$upscope $end
$upscope $end
$upscope $end
$scope module epRISC_testROM $end
$var wire 8 )$ iAddr [7:0] $end
$var wire 1 *$ iClk $end
$var wire 1 +$ iEnable $end
$var wire 32 ,$ oData [31:0] $end
$var reg 32 -$ rDataOut [31:0] $end
$upscope $end
$enddefinitions $end
#0
$dumpvars
bx -$
bx ,$
z+$
z*$
bz )$
bx ($
bx '$
bx &$
bx %$
bx $$
bx #$
bx "$
b100000000 !$
bx ~#
bx }#
1|#
bx {#
bx z#
bx y#
bx x#
bx w#
bx v#
bx u#
bx t#
bx s#
bx r#
bx q#
bx p#
bx o#
bx n#
bx m#
bx l#
b0 k#
bx j#
1i#
bx h#
bx g#
bx f#
bx e#
bx d#
bx c#
bx b#
bx a#
bx `#
bx _#
x^#
x]#
x\#
x[#
bx Z#
xY#
xX#
bx W#
xV#
xU#
bx T#
bx S#
bx R#
bx Q#
bx P#
bx O#
bx N#
bx M#
bx L#
bx K#
xJ#
xI#
xH#
xG#
xF#
xE#
xD#
xC#
xB#
xA#
x@#
x?#
x>#
x=#
x<#
x;#
x:#
x9#
x8#
bx 7#
bx 6#
bx 5#
bx 4#
bx 3#
bx 2#
bx 1#
bx 0#
bx /#
bx .#
x-#
x,#
bx +#
bx *#
x)#
bx (#
b0 '#
bx &#
bx %#
0$#
x##
b11011101011011100000011011110 "#
bx !#
bx ~"
bx }"
bx |"
bx {"
xz"
bx y"
bx x"
bx w"
bx v"
bx u"
bx t"
bx s"
bx r"
bx q"
bx p"
bx o"
bx n"
bx m"
bx l"
xk"
bx j"
bx i"
bx h"
xg"
xf"
bx e"
bx d"
xc"
bx b"
bx a"
bx `"
bx _"
bx ^"
bx ]"
bx \"
bx ["
bx Z"
xY"
bx X"
bx W"
bx V"
bx U"
bx T"
xS"
bx R"
bx Q"
bx P"
bx O"
xN"
xM"
xL"
0K"
xJ"
xI"
xH"
xG"
xF"
bx E"
zD"
0C"
bx B"
b0 A"
b0 @"
b0 ?"
z>"
bx ="
bz <"
bx ;"
bx :"
bx 9"
bx 8"
bx 7"
bx 6"
bx 5"
bx 4"
bx 3"
bx 2"
bx 1"
bx 0"
bx /"
bx ."
x-"
bx ,"
bx +"
bx *"
0)"
bx ("
bx '"
bx &"
bx %"
bx $"
bx #"
x""
bx !"
bx ~
b0 }
bx |
bx {
bx z
bx y
bx x
bx w
bx v
bx u
xt
bx s
xr
xq
xp
xo
0n
bx m
bz l
bz k
bz j
bz i
bz h
1g
0f
xe
xd
xc
xb
xa
x`
x_
x^
x]
x\
x[
xZ
xY
xX
xW
xV
xU
bx T
xS
bx R
bx Q
zP
xO
zN
zM
bz L
zK
zJ
zI
zH
zG
0F
0E
b0 D
1C
0B
0A
0@
b0 ?
b0 >
bz =
bz <
z;
1:
19
z8
z7
z6
z5
z4
z3
z2
z1
z0
z/
z.
bz -
z,
z+
z*
z)
z(
bz '
z&
z%
z$
z#
z"
z!
$end
#4
0I"
0S"
0H"
0G"
1F"
b0 "$
b0 &$
b0 V"
0##
0z"
b0 O"
b0 7#
0J"
0-#
0,#
b1 k#
b0 m#
b1 '#
b1 }
1)#
1N"
1f
#5
1""
1-"
1)"
1K"
0g
#8
0f
#12
b0 r"
b0 n"
b0 w"
b0 o"
b0 ~"
b0 u"
b0 l"
b0 p"
b0 y"
b0 q"
0k"
b10 }
b10 '#
b100100000000000000001000000000 B"
b100100000000000000001000000000 R"
b100100000000000000001000000000 U"
b100100000000000000001000000000 (#
b100100000000000000001000000000 #$
b100100000000000000001000000000 '$
b100100000000000000001000000000 ($
1L"
1f
#16
0f
#20
b11111111 x#
0A#
b11111111 0#
b11111111 y#
b11111111 4#
0<#
0;#
b11111111 /#
0>#
0H#
0I#
09#
08#
b0 .#
b0 {#
0G#
0B#
0C#
0D#
0E#
0F#
b11111111 3#
0=#
0?#
0J#
0:#
0@#
b0 6#
b0 1#
b0 z#
b0 W#
b0 Z#
0\#
0[#
0V#
0]#
0^#
0U#
0Y#
0X#
b0 h#
b0 _#
b0 N#
b0 P#
b0 T#
b0 b#
b0 S#
b0 f#
b0 `#
b0 a#
b0 O#
b0 M#
b0 R#
b0 Q#
b0 g#
b0 d#
b0 c#
b0 e#
b0 L#
b0 K#
b0 r#
b0 w#
b0 p#
b0 q#
b0 n#
b0 o#
b0 u#
b0 j#
b0 v#
b0 s#
b0 t#
b11 '#
b11 }
0)#
0N"
1f
#24
0f
#28
0f"
0g"
b0 e"
0c"
b0 b"
b0 d"
b0 i"
b0 v"
b0 j"
b0 }"
b0 h"
b0 m"
b100 }
b0 '#
0L"
1f
#32
0f
#36
b0 2#
b0 5#
b0 l#
b0 *#
b0 ~#
b0 +#
b0 }#
b1 '#
b101 }
1)#
1N"
1f
#40
0f
#44
b110 }
b10 '#
1L"
1f
#48
0f
#52
b11 '#
b111 }
0)#
0N"
1f
#56
0f
#60
b1000 }
b0 '#
0L"
1f
#64
0f
#68
b1 '#
b1001 }
1)#
1N"
1f
#72
0f
#76
b1010 }
b10 '#
1L"
1f
#80
0f
#84
b11 '#
b1011 }
0)#
0N"
1f
#88
0f
#92
b1100 }
b0 '#
0L"
1f
#96
0f
#100
b10 k#
b1 m#
b1 '#
b1101 }
1)#
1N"
x""
x-"
1f
0)"
0K"
1g
#104
0f
#108
b1110 }
b10 '#
1L"
1f
#112
0f
#116
b100 x#
b100 4#
b100 /#
1?#
b1000000000 _#
b1000000000 N#
b1000000000 P#
b1000000000 T#
b100 `#
b100 O#
b100 R#
b10 c#
b10 e#
b100100000000000000001000000000 j#
b11 '#
b1111 }
0)#
0N"
1f
#120
0f
#124
0r
b0 }
b0 '#
1n
0L"
1f
#128
0f
#132
b11 k#
b10 m#
b1 l#
b1 '#
b1 }
1)#
1N"
1f
#136
0f
#140
b10 }
b10 '#
1L"
1f
#144
0f
#148
b1000000000 .#
b1000000000 {#
b1000000000 h#
b1000000000 o#
b11 '#
b11 }
0)#
0N"
1f
#152
0f
#156
b100 }
b0 '#
0L"
1f
#160
0f
#164
b11111111 x#
b100 y#
b100 k#
b11 m#
b10 l#
b1 '#
b101 }
1)#
1N"
1f
#168
0f
#172
b110 }
b10 '#
1L"
1f
#176
0f
#180
b1000000000 v#
b11 '#
b111 }
0)#
0N"
1f
#184
0f
#188
b1000 }
b0 '#
0L"
1f
#192
0f
#196
b101 k#
b100 m#
b11 l#
b1 '#
b1001 }
1)#
1N"
1f
#200
0f
#204
b1010 }
b10 '#
1L"
1f
#208
0f
#212
b11 '#
b1011 }
0)#
0N"
1f
#216
0f
#220
b1100 }
b0 '#
0L"
1f
#224
0f
#228
1,#
b1 k#
b101 m#
b100 l#
b1 '#
b1101 }
1)#
1N"
1f
#232
0f
#236
b1110 }
b10 '#
1L"
1f
#240
0f
#244
b1 r#
b11 '#
b1111 }
0)#
0N"
1f
#248
0f
#252
b0 }
b0 '#
0n
0L"
1f
#256
0f
#260
b1 "$
b1 &$
b1 V"
0,#
b100 x#
b11111111 y#
b10 k#
b1 O"
b1 7#
b1 m#
b101 l#
b1 '#
b1 }
1)#
1N"
1f
#264
0f
#268
b10 }
b10 '#
b100111000000010000000000000001 B"
b100111000000010000000000000001 R"
b100111000000010000000000000001 U"
b100111000000010000000000000001 (#
b100111000000010000000000000001 #$
b100111000000010000000000000001 '$
b100111000000010000000000000001 ($
1L"
1f
#272
0f
#276
b111 x#
b111 4#
b111 /#
b10000000000000001 _#
b10000000000000001 N#
b10000000000000001 P#
b10000000000000001 T#
b1 b#
b110000 S#
b10000 f#
b111 `#
b111 O#
b111 R#
b1 g#
b0 c#
b0 e#
b1 K#
b100111000000010000000000000001 j#
b11 '#
b11 }
0)#
0N"
1f
#280
0f
#284
b100 }
b0 '#
0L"
1f
#288
0f
#292
b0 "$
b0 &$
b0 V"
b11 k#
b0 O"
b0 7#
b10 m#
b1 l#
b1 '#
b101 }
1)#
1N"
1f
#296
0f
#300
b110 }
b10 '#
b100100000000000000001000000000 B"
b100100000000000000001000000000 R"
b100100000000000000001000000000 U"
b100100000000000000001000000000 (#
b100100000000000000001000000000 #$
b100100000000000000001000000000 '$
b100100000000000000001000000000 ($
1L"
1f
#304
0f
#308
b10000000000000001 .#
b10000000000000001 {#
b10000000000000001 h#
b10000000000000001 o#
b11 '#
b111 }
0)#
0N"
1f
#312
0f
#316
b1000 }
b0 '#
0L"
1f
#320
0f
#324
b11111111 x#
b111 y#
b100 k#
b11 m#
b10 l#
b1 '#
b1001 }
1)#
1N"
1f
#328
0f
#332
b1010 }
b10 '#
1L"
1f
#336
0f
#340
b10000000000000001 v#
b11 '#
b1011 }
0)#
0N"
1f
#344
0f
#348
b1100 }
b0 '#
0L"
1f
#352
0f
#356
b101 k#
b100 m#
b11 l#
b1 '#
b1101 }
1)#
1N"
1f
#360
0f
#364
b1110 }
b10 '#
1L"
1f
#368
0f
#372
b11 '#
b1111 }
0)#
0N"
1f
#376
0f
#380
b0 }
b0 '#
1n
0L"
1f
#384
0f
#388
1,#
b1 k#
b101 m#
b100 l#
b1 '#
b1 }
1)#
1N"
1f
#392
0f
#396
b10 }
b10 '#
1L"
1f
#400
0f
#404
b10 r#
b11 '#
b11 }
0)#
0N"
1f
#408
0f
#412
b100 }
b0 '#
0L"
1f
#416
0f
#420
b10 "$
b10 &$
b10 V"
0,#
b111 x#
b11111111 y#
b10 k#
b10 O"
b10 7#
b1 m#
b101 l#
b1 '#
b101 }
1)#
1N"
1f
#424
0f
#428
b110 }
b10 '#
b1100100011100000000000000000000 B"
b1100100011100000000000000000000 R"
b1100100011100000000000000000000 U"
b1100100011100000000000000000000 (#
b1100100011100000000000000000000 #$
b1100100011100000000000000000000 '$
b1100100011100000000000000000000 ($
1L"
1f
#432
0f
#436
b111 0#
b100 x#
b111 y#
1;#
b100 4#
b111 3#
b11111111 /#
1=#
0?#
b0 _#
b0 N#
b0 P#
b0 T#
b0 b#
b111 S#
b111 f#
b100 `#
b111 a#
b100 O#
b111 M#
b100 R#
b111 Q#
b0 g#
b111 L#
b0 K#
b1100100011100000000000000000000 j#
b11 '#
b111 }
0)#
0N"
1f
#440
0f
#444
b1000 }
b0 '#
0L"
1f
#448
0f
#452
b1000000000 5#
b10000000000000001 2#
b0 "$
b0 &$
b0 V"
b11 k#
b0 O"
b0 7#
b1000000000 +#
b1000000000 }#
b10000000000000001 *#
b10000000000000001 ~#
b10 m#
b1 l#
b1 '#
b1001 }
1)#
1N"
1f
#456
0f
#460
b1010 }
b10 '#
b100100000000000000001000000000 B"
b100100000000000000001000000000 R"
b100100000000000000001000000000 U"
b100100000000000000001000000000 (#
b100100000000000000001000000000 #$
b100100000000000000001000000000 '$
b100100000000000000001000000000 ($
1L"
1f
#464
0f
#468
b1000000000 1#
b1000000000 z#
b0 .#
b0 {#
b1000000000 h#
b1000000000 n#
b0 o#
b10000000000000001 u#
b11 '#
b1011 }
0)#
0N"
1f
#472
0f
#476
b1100 }
b0 '#
0L"
1f
#480
0f
#484
b111 x#
b11111111 y#
b100 k#
b11 m#
b10 l#
b1 '#
b1101 }
1)#
1N"
1f
#488
0f
#492
b1110 }
b10 '#
1L"
1f
#496
0f
#500
b1000000000 v#
b11 '#
b1111 }
0)#
0N"
1f
#504
0f
#508
b0 }
b0 '#
0n
0L"
1f
#512
0f
#516
b10000000000000001 5#
b0 2#
1H"
0F"
b1000000000 O"
b1000000000 7#
b10000000000000001 B"
b10000000000000001 R"
b10000000000000001 U"
b10000000000000001 (#
b10000000000000001 #$
b10000000000000001 '$
1J"
b101 k#
b10000000000000001 +#
b10000000000000001 }#
b0 *#
b0 ~#
b100 m#
b11 l#
b1 '#
b1 }
1)#
1N"
1f
#520
0f
#524
b10 }
b10 '#
1L"
1f
#528
0f
#532
b11 '#
b11 }
0)#
0N"
1f
#536
0f
#540
b0 R
b0 x
b0 Q"
b0 a"
b0 ["
1f"
b1 d"
b10000000000000001 h"
b100 }
b0 '#
0L"
1f
#544
0f
#548
0H"
1F"
b0 O"
b0 7#
b100100000000000000001000000000 B"
b100100000000000000001000000000 R"
b100100000000000000001000000000 U"
b100100000000000000001000000000 (#
b100100000000000000001000000000 #$
b100100000000000000001000000000 '$
0J"
b1 k#
b101 m#
b100 l#
b1 '#
b101 }
1)#
1N"
1f
#552
0f
